<?xml version="1.0" encoding="utf-8"?>
<!-- Generator: Adobe Illustrator 24.0.1, SVG Export Plug-In . SVG Version: 6.00 Build 0)  -->
<svg version="1.1" id="Calque_1" xmlns="http://www.w3.org/2000/svg" xmlns:xlink="http://www.w3.org/1999/xlink" x="0px" y="0px"
	 viewBox="0 0 2000 1051.83" style="enable-background:new 0 0 2000 1051.83;" xml:space="preserve">
<style type="text/css">
	.st0{clip-path:url(#SVGID_2_);fill:#E8E8E8;}
	.st1{fill:#4767AA;}
	.st2{fill:#FFFFFF;}
	.st3{fill:#00A58E;}
	.st4{fill:#40B4A1;}
	.st5{fill:#D8D1B4;}
	.st6{fill:#E0BD21;}
	.st7{fill:#394170;}
	.st8{fill:none;}
	.st9{fill:#008972;}
	.st10{fill:#25AE93;}
	.st11{fill:#EB6C71;}
	.st12{fill:#0065AE;}
	.st13{fill:#E8E8E8;}
</style>
<g>
	<g>
		<defs>
			<rect id="SVGID_1_" x="160.02" y="42.89" width="1708.57" height="1005.22"/>
		</defs>
		<clipPath id="SVGID_2_">
			<use xlink:href="#SVGID_1_"  style="overflow:visible;"/>
		</clipPath>
		<circle class="st0" cx="999.34" cy="926.19" r="703.73"/>
	</g>
	<g>
		<g>
			<path class="st1" d="M956.23,217.89c0,0-21.34-10.9-47.48-9.25s-43.51,19.78-44.58,27.08c-1.07,7.29,3.76,22.62,31.86,17.79
				c28.1-4.83,28.1-4.83,47.61-9.67C958.34,240.2,969.45,230.53,956.23,217.89z"/>
			<g>
				<path class="st1" d="M927.69,207.12c-13.67,1.47-27.15,0.51-38-9.54c-13.25-12.28-21.28-30.09-22.52-47.91
					c-0.74-10.64,2.32-27.69,13.01-26.95c5.8-5.76,14.34-4.14,22.02-4.33c9.51-0.23,19.03-4.62,28.85-2.99
					c21.25,3.53,8.47,27.07,16.26,45.52c1.5,3.55,2.06,7.42,1.9,11.27C948.74,183.93,945.41,205.22,927.69,207.12z"/>
			</g>
			<path class="st2" d="M899.61,191.98c0,0,4.93,15.38,2.67,19.15c0,0,1.1,4.04,8.02,4.12c0,0,5.73,1.13,8.81-2.65
				c0,0-1.68-11.33,0-16.57L899.61,191.98z"/>
			<path class="st2" d="M932.37,136.52c5.21,12.75,8.66,66.87-17.03,62.61c-29.88-4.95-53.36-57.42-31.82-77.6
				c4.86-4.55,28.25,0.99,36.83,2.66C928.26,125.73,930.78,132.73,932.37,136.52z"/>
			<path class="st1" d="M881.83,122.56c3.37,3.65,12.25,6.59,11.85,13.67c-0.4,7.03-5.62,13.47-7.61,20.27
				c-2.36,8.08-2.4,15.01,1.95,22.6c2.49,4.34,6.37,8.29,9.11,12.49c0.71,1.1,2.74,3.66,2.23,5.14c-1.6,4.68-8.09-4.5-9.72-6.38
				c-3.1-3.57-7.13-6.4-10.06-10.08c-3.36-4.22-4.94-9.71-6.91-14.66c-2.83-7.09-4.65-15.54-0.7-22.57
				c2.52-4.48,0.08-7.15,1.64-12.07C874.25,128.91,878.92,121.81,881.83,122.56z"/>
			<path class="st1" d="M929.61,115.45c-6.88-0.59-12.56,6.61-17.52,10.46c-4.92,3.81-14.71,6.67-20.64,4.01
				c-3.03-1.35-8.86-5.52-10.94-7.98c3.23-3.96,20.6-1.36,25.73-1.74c4.97-0.37,9.37-2.53,13.96-3.74
				C923.58,115.57,927.07,115.51,929.61,115.45z"/>
			<path class="st1" d="M908.74,143.38c0,0.01,0,0.03,0,0.04c0.1,0.99-0.58,1.9-1.57,2.04c-2.39,0.34-4.82,0.56-7.22,0.84
				c-3.08,0.36-5.62,1.72-8.56,2.24c3.13-3.83,9.69-5.58,15.09-6.79C907.58,141.51,908.63,142.27,908.74,143.38z"/>
			<path class="st1" d="M919.99,141.75c0,0.1,0,0.2-0.01,0.3c-0.03,0.93,0.68,1.73,1.6,1.79c2.45,0.16,4.93,0.2,7.38,0.29
				c3.1,0.12,5.74,1.29,8.71,1.58c-3.45-3.6-10.21-4.84-15.71-5.63C920.94,139.92,920.01,140.71,919.99,141.75z"/>
			<path class="st1" d="M904.08,152.78c2.23,2.95-0.1,11.16-3.69,6.42C898.12,156.2,901.24,148.21,904.08,152.78"/>
			<path class="st1" d="M928.18,151.62c2.23,2.95-0.03,11.73-3.61,6.99C922.29,155.61,925.34,147.06,928.18,151.62"/>
			<path class="st1" d="M919.72,169.79c-1.01,0.02-3.34-0.32-3.95,0.53c1.31,0.39,3.03,0.39,4.24-0.25"/>
			<path class="st1" d="M909.76,183.02c-1.68,0.75-0.24,2.95,0.58,3.72c1.39,1.31,2.99,1.73,4.9,1.67c1.7-0.05,3.8-1.04,3.75-2.97
				c-0.05-1.89-1.96-2.04-3.56-2.27C913.52,182.9,911.59,182.75,909.76,183.02z"/>
		</g>
		<g>
			<path class="st3" d="M1044.06,225.94c0,0,23.98-11.49,53.35-9.75c29.37,1.74,48.89,20.84,50.09,28.52
				c1.2,7.68-4.23,23.83-35.8,18.74c-31.58-5.09-31.58-5.09-53.49-10.18C1041.64,249.41,1029.21,239.25,1044.06,225.94z"/>
			<path class="st4" d="M1070.72,146.8c-3.81-0.82-8.63-12.14-9.84-15.55c12.17-0.46,21.86-9.42,33.91-11.29
				c9.85-1.53,20.13,1.06,28.63,6.33c12.81,7.95,12.88,23,8.29,36.06c-1.33,3.79-2.61,5.32-4.82,8.14c-1.72,2.2-2.46,5.38-4.28,7.46
				c-5.73-0.23-6.85-8.75-8.95-13.23c-1.93-4.11-2.4-8.36-4.54-12.75c-4.9-10.04-16.76-3.07-25.73-3.17
				C1079.82,148.76,1071.09,144.22,1070.72,146.8z"/>
			<path class="st2" d="M1075.67,217.12c3.66-0.75,3.66-0.75,7.97-0.95c3.11-6.94,0.13-7.45-4.69-11.26
				c-3.85-3.04-6.76-7.26-7.55-12.16c-1.28-7.88-0.27-15.35-1.05-23.1c-0.54-5.37-1.63-9.77-0.79-15.02
				c0.28-1.72,0.23-3.57,0.65-5.26c0.21-0.84,1.64-4.65,1.24-3.5c3.58-3.6,14.09,0.5,18.58-0.24c6.37-1.05,11.79-4.94,18.32-1.73
				c4.37,2.15,4.78,4.76,5.17,8.91c0.71,7.49,3.9,18.25,9.72,23.43c0.95-3.84,6.37-6.6,9.58-3.67c2.19,2,1.7,6.68,1.3,9.48
				c-0.39,2.79-1.89,7.97-3.8,10.06c-3.12,3.42-7.43,0.74-10.79-0.58c-3.3,8.19-6.29,12.48-14.17,16.62
				c-6.76,3.55-12.68,1.66-19.68,0.92c0.29-2.88,3.06-6.75,5.17-8.82c3.2-3.13,8.54-4.22,12.77-4.93
				c1.87-0.31,11.63-3.12,13.42-1.21c1.4,1.49-1.28,8.75-1.81,10.6c-0.96,3.33-3.9,8.67-3.51,11.51c0,0,2.42,2.78,5.61,4.02
				c0,0-4.71,5.54-21.7,3.09C1095.64,223.35,1080.33,222.61,1075.67,217.12z"/>
			<path class="st5" d="M1101.09,194.71c0,0.32-0.16,0.44-0.47,0.37"/>
			<path class="st4" d="M1093.4,158.59c0.15-1.24,0.28-2.51,0.5-3.73c3.48-0.24,14.85-2.08,15.12,3.52c-2.8-0.28-5.74-1.4-8.65-1.31
				C1097.94,157.14,1095.43,158.19,1093.4,158.59z"/>
			<path class="st4" d="M1080.28,158.92c0.13-1.07,0.28-2.16,0.35-3.23c-3.1-0.95-13-4.92-14.45-0.3c2.59,0.37,5.5,0.06,8.11,0.76
				C1076.48,156.74,1078.52,158.16,1080.28,158.92z"/>
			<path class="st4" d="M1074.71,161.74c-2.09,2.26-0.92,9.72,2.44,6.08C1079.27,165.51,1077.43,158.19,1074.71,161.74"/>
			<path class="st4" d="M1097.71,162.1c-2.09,2.26-0.92,9.72,2.44,6.08C1102.27,165.87,1100.43,158.54,1097.71,162.1"/>
			<path class="st4" d="M1095.23,193.69c-3.46-0.68-6.99,0.35-10.45,0.09C1081.97,202.32,1098.42,202.04,1095.23,193.69"/>
			<path class="st4" d="M1081.35,181.13c0,0,4.41,1.61,7.81-0.14C1089.16,180.99,1083.3,180.24,1081.35,181.13z"/>
			<path class="st4" d="M1091.75,201.86c-15.18,1.94-14.74-11.65-16.51-14.92c-1.77-3.26-4.51-8.18-4.51-8.18
				s-1.48,19.02,5.84,25.04c8.63,7.09,28.78,10.62,35.96-0.65s7-11.6,7-11.6l3.11-11.97l-3.52-6.59c0,0-1.96,10.86-3.28,14.84
				C1114.53,191.82,1100.5,200.74,1091.75,201.86z"/>
		</g>
		<g>
			<path class="st6" d="M956.54,232.89c0,0,21.34-10.9,47.48-9.25c26.14,1.65,43.51,19.78,44.58,27.08
				c1.07,7.29-3.76,22.62-31.86,17.79c-28.1-4.83-28.1-4.83-47.61-9.67C954.43,255.19,943.33,245.53,956.54,232.89z"/>
			<g>
				<path class="st6" d="M963.56,187.2c-1.88-3.36,0.41-7.72,1.9-11.27c7.78-18.45-5-41.99,16.26-45.52
					c9.82-1.63,19.34,2.76,28.85,2.99c7.68,0.19,16.22-1.43,22.02,4.33c10.69-0.74,13.75,16.31,13.01,26.95
					c-1.24,17.82-9.26,35.63-22.52,47.91C1023.08,212.58,984.35,224.29,963.56,187.2z"/>
			</g>
			<path class="st2" d="M1013.17,206.97c0,0-4.93,15.38-2.67,19.15c0,0-1.1,4.04-8.02,4.12c0,0-5.73,1.13-8.81-2.65
				c0,0,1.68-11.33,0-16.57L1013.17,206.97z"/>
			<path class="st2" d="M980.41,151.52c-5.21,12.75-8.66,66.87,17.03,62.61c29.88-4.95,53.36-57.42,31.82-77.6
				c-4.86-4.55-28.25,0.99-36.83,2.66C984.52,140.73,981.99,147.73,980.41,151.52z"/>
			<path class="st6" d="M1030.95,137.55c-3.37,3.65-12.25,6.59-11.85,13.67c0.4,7.03,5.62,13.47,7.61,20.27
				c2.36,8.08,2.4,15.01-1.95,22.6c-2.49,4.34-6.37,8.29-9.11,12.49c-0.71,1.1-2.74,3.66-2.23,5.14c1.6,4.68,8.09-4.5,9.72-6.38
				c3.1-3.57,7.13-6.4,10.06-10.08c3.36-4.22,4.94-9.71,6.91-14.66c2.83-7.09,4.65-15.54,0.7-22.57c-2.52-4.48-0.08-7.15-1.64-12.07
				C1038.53,143.91,1033.86,136.81,1030.95,137.55z"/>
			<path class="st7" d="M983.17,130.45c6.88-0.59,12.56,6.61,17.52,10.46c4.92,3.81,14.71,6.67,20.64,4.01
				c3.03-1.35,8.86-5.52,10.94-7.98c-3.23-3.96-20.6-1.36-25.73-1.74c-4.97-0.37-9.37-2.53-13.96-3.74
				C989.2,130.57,985.71,130.51,983.17,130.45z"/>
			<path class="st6" d="M1004.68,161.19c0,0.01,0,0.03,0,0.04c-0.1,0.99,0.58,1.9,1.57,2.04c2.39,0.34,4.82,0.56,7.22,0.84
				c3.08,0.36,5.62,1.72,8.56,2.24c-3.13-3.83-9.69-5.58-15.09-6.79C1005.84,159.32,1004.79,160.08,1004.68,161.19z"/>
			<path class="st6" d="M992.55,159.57c0,0.1,0,0.2,0.01,0.3c0.03,0.93-0.68,1.73-1.6,1.79c-2.45,0.16-4.93,0.2-7.38,0.29
				c-3.1,0.12-5.74,1.29-8.71,1.58c3.45-3.6,10.21-4.84,15.71-5.63C991.6,157.75,992.53,158.53,992.55,159.57z"/>
			<path class="st6" d="M1008.7,167.78c-2.23,2.95,0.1,11.16,3.69,6.42C1014.66,171.2,1011.54,163.21,1008.7,167.78"/>
			<path class="st6" d="M984.6,166.62c-2.23,2.95,0.03,11.73,3.61,6.99C990.49,170.61,987.44,162.06,984.6,166.62"/>
			<path class="st6" d="M993.05,184.79c1.01,0.02,3.34-0.32,3.95,0.53c-1.31,0.39-3.03,0.39-4.24-0.25"/>
			<path class="st6" d="M1003.02,198.02c1.68,0.75,0.24,2.95-0.58,3.72c-1.39,1.31-2.99,1.73-4.9,1.67c-1.7-0.05-3.8-1.04-3.75-2.97
				c0.05-1.89,1.96-2.04,3.56-2.27C999.26,197.9,1001.19,197.75,1003.02,198.02z"/>
			<path class="st6" d="M1035.88,140.67c0,0-17.87,18.91-63.22,13.4l4.07-15.89l12.27-4.12l-5.84-3.62
				C983.17,130.45,1029.73,120.62,1035.88,140.67z"/>
		</g>
		<g>
			<g>
				<g>
					<g>
						<g>
							<g>
								<g>
									<path class="st6" d="M1017.53,53.17c-0.39,0.45-0.31,1.11,0.19,1.47c0.21,0.15,0.46,0.23,0.71,0.23
										c0.34,0,0.67-0.14,0.89-0.4l1.14-1.32c-0.27-0.68-0.62-1.4-1.07-2.13L1017.53,53.17z"/>
									<path class="st6" d="M1027.65,43.11c-0.49-0.36-1.21-0.28-1.6,0.17l-3.36,3.9c0.48,0.63,0.91,1.26,1.27,1.89l3.87-4.49
										C1028.22,44.13,1028.14,43.47,1027.65,43.11z"/>
									<path class="st6" d="M1020.15,50.13c0.46,0.7,0.83,1.39,1.13,2.06l1.91-2.22c-0.35-0.64-0.76-1.29-1.24-1.93L1020.15,50.13
										z"/>
								</g>
								<g>
									<path class="st6" d="M1006.95,44.55c-0.04,0-0.08-0.01-0.12-0.02l-0.1,0c-0.02,0-0.03,0-0.05,0c-0.01,0-0.02,0-0.04,0
										l-0.63-0.02l-0.19,0.05c-0.06,0.02-0.12,0.03-0.19,0.03c-0.05,0-0.1,0.01-0.16,0.02v6.81c0,0.58,0.51,1.05,1.14,1.05
										s1.14-0.47,1.14-1.05v-6.8c-0.02,0-0.04,0-0.06-0.01L1006.95,44.55z"/>
									<path class="st6" d="M1006.47,40.96c-0.03,0-0.07,0-0.1,0c-0.03,0-0.06,0-0.1,0c-0.26,0-0.53,0.03-0.81,0.04v2.56
										c0.02,0,0.03,0,0.05-0.01l0.36-0.09l0.8,0.02l0.25-0.01c0.04,0.01,0.09,0.02,0.13,0.03l0.69,0.06v-2.55
										c-0.01,0-0.02,0-0.03,0C1007.31,41.02,1006.9,40.96,1006.47,40.96z"/>
									<path class="st6" d="M1005.7,39.95c0.2-0.02,0.39-0.03,0.58-0.03l0.09,0l0.1,0c0.24,0,0.48,0.01,0.71,0.03
										c0.18,0.01,0.36,0.02,0.54,0.02c0,0,0.01,0,0.03,0v-3.53c0-0.58-0.51-1.05-1.14-1.05s-1.14,0.47-1.14,1.05v3.52
										C1005.55,39.96,1005.63,39.95,1005.7,39.95z"/>
								</g>
								<g>
									<path class="st6" d="M995.81,54.46c0.22,0.26,0.56,0.4,0.89,0.4c0.25,0,0.5-0.07,0.71-0.23c0.49-0.36,0.58-1.01,0.19-1.47
										l-2.9-3.37c-0.51,0.63-0.92,1.28-1.26,1.9L995.81,54.46z"/>
									<path class="st6" d="M992.66,50.8c0.36-0.62,0.79-1.24,1.31-1.86l-1.77-2.06c-0.52,0.58-0.98,1.18-1.38,1.77L992.66,50.8z"
										/>
									<path class="st6" d="M990.06,47.79c0.41-0.59,0.88-1.17,1.4-1.75l-2.38-2.76c-0.39-0.45-1.11-0.53-1.6-0.17
										c-0.49,0.36-0.58,1.01-0.19,1.47L990.06,47.79z"/>
								</g>
								<g>
									<path class="st6" d="M1007.75,69.6l7.62-10.25c0.35-0.48,0.22-1.13-0.3-1.45c-0.52-0.33-1.23-0.2-1.58,0.27l-7.82,10.52
										c-0.13,0.17-0.2,0.38-0.2,0.59v21.38h2.28V69.6z"/>
									<rect x="1005.47" y="91.7" class="st6" width="2.28" height="2.57"/>
								</g>
							</g>
							<g>
								<path class="st6" d="M1006.61,70.32c-0.39,0-0.77-0.18-0.98-0.51l-6.82-10.52c-0.32-0.5-0.14-1.14,0.4-1.43
									c0.54-0.3,1.24-0.13,1.56,0.36l6.82,10.52c0.32,0.5,0.14,1.14-0.4,1.43C1007.01,70.28,1006.81,70.32,1006.61,70.32z"/>
							</g>
						</g>
					</g>
					<path class="st6" d="M1001.55,94.27h10.12c0.33,0,0.6-0.25,0.6-0.55v-7.4c3.04-1.89,14.7-10.43,13.01-29.76
						c-0.04-0.55-1.09-13.47-16.02-15.41c-0.15-0.02-0.64-0.12-0.64-0.12l-0.83,0c-0.02,0-0.05,0-0.07,0
						c-0.42,0-0.82-0.05-1.25-0.05c-0.03,0-0.07,0-0.1,0c-0.03,0-0.06,0-0.1,0c-0.32,0-0.65,0.05-0.99,0.05
						c-0.03,0-0.21,0-0.24,0.01l-0.91,0.1c-15.35,1.89-16.19,15.31-16.2,15.42c-1.7,19.34,9.96,27.89,13.01,29.78v7.4
						C1000.95,94.03,1001.22,94.27,1001.55,94.27z M990.75,56.71c0.03-0.49,0.79-11.93,14.77-13.15l0.36-0.09l0.8,0.02l0.25-0.01
						c0.04,0.01,0.09,0.02,0.13,0.03l0.74,0.06c13.89,1.2,14.65,12.64,14.68,13.17c1.78,20.26-12.15,27.66-12.28,27.73l-0.42,0.21
						c-0.19,0.1-0.31,0.28-0.31,0.48v6.52h-5.71v-6.53c0-0.2-0.12-0.39-0.31-0.48l-0.42-0.21
						C1002.89,84.41,988.95,77.1,990.75,56.71z"/>
				</g>
			</g>
			<path class="st6" d="M1000.77,96.29h12.1c0,0,0.32,7.08-6.05,7.08C1006.82,103.37,1000.59,103.07,1000.77,96.29z"/>
		</g>
		<g>
			<path class="st8" d="M884.82,59.26c-4.89,0.78-8.23,5.38-7.45,10.28c0.78,4.89,5.38,8.23,10.28,7.45
				c4.89-0.78,8.23-5.38,7.45-10.28C894.32,61.82,889.71,58.48,884.82,59.26z"/>
			<path class="st8" d="M916.57,77.83c-2.66,1.92-3.35,5.73-1.54,8.46c1.93,2.91,5.86,3.66,8.72,1.68c2.82-1.95,3.53-5.82,1.57-8.64
				C923.34,76.48,919.4,75.79,916.57,77.83z"/>
			<path class="st1" d="M907.29,73.62c0.44-1.67,0.68-3.41,0.7-5.18l-3.64-1.45c-0.04-0.57-0.1-1.14-0.19-1.72
				c-0.03-0.2-0.07-0.39-0.11-0.59l3.16-2.33c-0.47-1.71-1.13-3.33-1.97-4.83l-3.89,0.56c-0.43-0.65-0.9-1.27-1.41-1.85l1.57-3.59
				c-1.24-1.23-2.63-2.3-4.13-3.2l-3.09,2.43c-0.69-0.34-1.41-0.65-2.14-0.9l-0.43-3.9c-1.67-0.44-3.41-0.68-5.18-0.7l-1.45,3.64
				c-0.57,0.04-1.14,0.1-1.72,0.19c-0.2,0.03-0.39,0.07-0.59,0.11l-2.32-3.17c-1.72,0.47-3.34,1.14-4.84,1.97l0.56,3.89
				c-0.65,0.43-1.27,0.9-1.85,1.41l-3.59-1.57c-1.23,1.25-2.3,2.63-3.2,4.13l2.43,3.08c-0.35,0.69-0.65,1.41-0.91,2.14l-3.9,0.43
				c-0.44,1.67-0.67,3.4-0.7,5.18l3.64,1.45c0.04,0.57,0.1,1.14,0.19,1.72c0.03,0.2,0.07,0.39,0.11,0.59l-3.17,2.33
				c0.47,1.71,1.14,3.33,1.97,4.83l3.89-0.56c0.43,0.65,0.9,1.27,1.41,1.85l-1.57,3.59c1.24,1.23,2.63,2.3,4.13,3.2l3.08-2.43
				c0.69,0.35,1.41,0.65,2.15,0.91l0.43,3.9c1.67,0.44,3.4,0.68,5.17,0.7l1.46-3.64c0.57-0.04,1.14-0.1,1.72-0.19
				c0.2-0.03,0.39-0.07,0.59-0.11l2.33,3.17c1.72-0.47,3.34-1.14,4.84-1.97l-0.56-3.89c0.65-0.43,1.27-0.9,1.85-1.41l3.59,1.57
				c1.23-1.25,2.3-2.63,3.2-4.13l-2.43-3.08c0.34-0.69,0.65-1.41,0.9-2.15L907.29,73.62z M887.14,80.89
				c-7.04,0.5-13.17-4.82-13.67-11.85c-0.5-7.04,4.82-13.17,11.85-13.67c7.04-0.5,13.17,4.82,13.67,11.85
				C899.49,74.26,894.18,80.39,887.14,80.89z"/>
			<path class="st1" d="M874.38,68.97c0.47,6.53,6.16,11.47,12.69,11.01c6.53-0.47,11.47-6.16,11.01-12.69
				c-0.47-6.53-6.16-11.47-12.69-11.01C878.85,56.74,873.92,62.44,874.38,68.97z M895.09,66.71c0.78,4.9-2.56,9.5-7.45,10.28
				c-4.89,0.78-9.5-2.56-10.28-7.45c-0.78-4.9,2.56-9.5,7.45-10.28C889.71,58.48,894.32,61.82,895.09,66.71z"/>
			<path class="st1" d="M910.04,83.55c0.28,5.61,5.07,9.94,10.68,9.66c5.61-0.28,9.94-5.07,9.66-10.68
				c-0.28-5.61-5.07-9.94-10.68-9.66C914.09,73.15,909.76,77.94,910.04,83.55z M925.32,79.33c1.95,2.82,1.25,6.69-1.57,8.64
				c-2.86,1.98-6.79,1.23-8.72-1.68c-1.81-2.73-1.11-6.55,1.54-8.46C919.4,75.79,923.34,76.48,925.32,79.33z"/>
			<path class="st1" d="M936.64,83.49c0.03-1.19-0.06-2.38-0.29-3.56l-2.81-0.46c-0.2-0.71-0.45-1.42-0.76-2.11l1.88-2.14
				c-0.28-0.52-0.59-1.03-0.94-1.53c-0.34-0.49-0.71-0.96-1.1-1.41l-2.67,1.01c-0.54-0.54-1.11-1.02-1.71-1.46l0.56-2.79
				c-1.03-0.63-2.11-1.14-3.23-1.53l-1.81,2.21c-0.72-0.19-1.46-0.33-2.2-0.4l-0.92-2.71c-1.19-0.03-2.38,0.07-3.55,0.3l-0.47,2.81
				c-0.72,0.19-1.42,0.45-2.11,0.76l-2.14-1.88c-0.52,0.28-1.03,0.59-1.53,0.93c-0.5,0.34-0.97,0.71-1.41,1.09l1.01,2.67
				c-0.53,0.54-1.02,1.11-1.45,1.71l-2.79-0.56c-0.63,1.02-1.14,2.1-1.53,3.22l2.21,1.81c-0.19,0.72-0.32,1.46-0.4,2.2l-2.7,0.92
				c-0.03,1.19,0.06,2.38,0.29,3.56l2.81,0.46c0.19,0.72,0.45,1.42,0.76,2.12l-1.88,2.14c0.28,0.52,0.59,1.03,0.93,1.52
				c0.34,0.5,0.71,0.97,1.1,1.41l2.67-1.01c0.53,0.53,1.11,1.02,1.71,1.45l-0.56,2.8c1.02,0.63,2.1,1.14,3.22,1.52l1.81-2.21
				c0.72,0.2,1.45,0.33,2.2,0.4l0.92,2.71c1.18,0.03,2.38-0.06,3.56-0.29l0.46-2.81c0.72-0.19,1.42-0.45,2.11-0.76l2.15,1.88
				c0.52-0.28,1.02-0.59,1.52-0.93c0.5-0.34,0.96-0.71,1.41-1.1l-1.01-2.67c0.53-0.54,1.02-1.11,1.45-1.71l2.8,0.56
				c0.63-1.02,1.14-2.11,1.52-3.23l-2.21-1.81c0.19-0.72,0.33-1.45,0.4-2.2L936.64,83.49z M920.74,93.65
				c-5.85,0.29-10.85-4.23-11.14-10.08c-0.3-5.85,4.23-10.85,10.08-11.14c5.85-0.29,10.85,4.23,11.14,10.08
				C931.11,88.36,926.59,93.36,920.74,93.65z"/>
		</g>
		<polygon class="st4" points="1107.11,39.51 1125.68,43.18 1111.51,86.57 1104.54,84.6 		"/>
		<circle class="st4" cx="1106.77" cy="94.33" r="5.55"/>
	</g>
	<g>
		<polyline class="st9" points="1229.42,607.99 807.21,607.99 807.21,585.89 807.21,533.8 807.21,496.43 848.3,496.43 848.3,506.62 
			872.26,506.62 872.26,433.58 909.93,433.58 909.93,518.51 940.17,530.4 954.58,516.81 963.3,530.4 1129.96,530.4 1129.96,515.11 
			1136.81,513.98 1150.71,374.12 1162.22,513.98 1168.5,515.11 1168.5,566.07 1233.05,541.72 		"/>
		<polyline class="st9" points="1100.38,541.28 1091.66,530.36 1077.25,541.28 999.35,531.72 999.35,504.37 961.69,478.28 
			961.69,494.28 937.72,494.28 937.72,462.11 907.8,462.11 907.8,544.01 907.8,585.89 		"/>
		<polygon class="st3" points="716.49,616.02 716.49,563.93 716.49,505.05 757.57,505.05 757.57,536.75 781.54,536.75 
			781.54,463.71 819.2,463.71 819.2,548.64 965.62,560.53 980.02,546.94 988.75,560.53 1110.23,560.53 1110.23,545.24 
			1117.07,544.11 1121.64,466.54 1128.49,544.11 1134.76,545.24 1134.76,596.2 1222.64,571.86 1222.64,571.86 1222.64,488.62 
			1293.4,488.62 1293.4,572.42 1293.4,616.02 		"/>
		<polygon class="st3" points="1133.16,554.74 1163.45,534.15 1190.28,554.74 1190.28,594.35 1133.16,594.35 		"/>
		<rect x="1158.22" y="551.25" class="st6" width="7" height="7"/>
		<rect x="785.36" y="476.5" class="st6" width="7" height="7"/>
		<rect x="745.59" y="514.13" class="st6" width="7" height="7"/>
		<g>
			<g>
				<rect x="976.7" y="495.43" class="st3" width="40.68" height="112.56"/>
				<path class="st3" d="M997.04,516.95L997.04,516.95c-9.39,0-17.07-7.68-17.07-17.07v-28.34c0-9.39,7.68-17.07,17.07-17.07h0
					c9.39,0,17.07,7.68,17.07,17.07v28.34C1014.1,509.27,1006.42,516.95,997.04,516.95z"/>
				<path class="st3" d="M998.6,444.05c-1.03-0.1-1.64-0.17-2.01-0.2v-0.06c0,0-0.01,0-0.29,0.03c-0.28-0.03-0.29-0.03-0.29-0.03
					v0.06c-0.37,0.04-0.98,0.1-2.01,0.2c-2.59,0.26-2.16,5.04-2.16,5.04v14.35l4.17-0.02v0.02l0.29-0.01l0.29,0.01v-0.02l4.17,0.02
					V449.1C1000.75,449.1,1001.18,444.32,998.6,444.05z"/>
				<rect x="1007.5" y="522.08" class="st3" width="67.57" height="85.91"/>
				<polygon class="st3" points="1007.5,526.2 1040.83,503.37 1075.07,522.08 				"/>
				<rect x="978.37" y="474.65" class="st3" width="37.28" height="1.21"/>
				<polygon class="st3" points="994.97,444.65 996.3,437.07 997.04,444.65 				"/>
				<rect x="1068.47" y="495.43" class="st3" width="40.68" height="112.56"/>
				<path class="st3" d="M1088.81,516.95L1088.81,516.95c-9.39,0-17.07-7.68-17.07-17.07v-28.34c0-9.39,7.68-17.07,17.07-17.07l0,0
					c9.39,0,17.07,7.68,17.07,17.07v28.34C1105.88,509.27,1098.2,516.95,1088.81,516.95z"/>
				<path class="st3" d="M1090.38,444.05c-1.03-0.1-1.64-0.17-2.01-0.2v-0.06c0,0-0.01,0-0.29,0.03c-0.28-0.03-0.29-0.03-0.29-0.03
					v0.06c-0.37,0.04-0.98,0.1-2.01,0.2c-2.59,0.26-2.16,5.04-2.16,5.04v14.35l4.17-0.02v0.02l0.29-0.01l0.29,0.01v-0.02l4.17,0.02
					V449.1C1092.53,449.1,1092.96,444.32,1090.38,444.05z"/>
				<rect x="1070.15" y="474.65" class="st3" width="37.28" height="1.21"/>
				<polygon class="st3" points="1086.75,444.65 1088.08,437.07 1088.81,444.65 				"/>
			</g>
			<path class="st6" d="M983.63,495.35v-13.29c0,0-0.43-4.48,2.15-4.73s2.59-0.25,2.59-0.25v18.43L983.63,495.35z"/>
			<path class="st6" d="M998.6,476.12c-1.03-0.1-1.64-0.17-2.01-0.2v-0.06c0,0-0.01,0-0.29,0.03c-0.28-0.03-0.29-0.03-0.29-0.03
				v0.06c-0.37,0.04-0.98,0.1-2.01,0.2c-2.59,0.26-2.16,5.04-2.16,5.04v14.35l4.17-0.02v0.02l0.29-0.01l0.29,0.01v-0.02l4.17,0.02
				v-14.35C1000.75,481.16,1001.18,476.38,998.6,476.12z"/>
			<path class="st6" d="M1009.86,495.35v-13.29c0,0,0.43-4.48-2.15-4.73c-2.59-0.25-2.59-0.25-2.59-0.25v18.43L1009.86,495.35z"/>
			<path class="st6" d="M994.81,445.75c-0.16-0.05-0.25-0.08-0.31-0.09v-0.03c0,0,0,0-0.04,0.01c-0.04-0.01-0.04-0.01-0.04-0.01
				v0.03c-0.06,0.02-0.15,0.05-0.31,0.09c-0.4,0.12-0.33,2.28-0.33,2.28v6.49l0.64-0.01v0.01l0.04,0l0.04,0v-0.01l0.64,0.01v-6.49
				C995.14,448.03,995.2,445.87,994.81,445.75z"/>
			<path class="st6" d="M998.07,445.75c-0.16-0.05-0.25-0.08-0.31-0.09v-0.03c0,0,0,0-0.04,0.01c-0.04-0.01-0.04-0.01-0.04-0.01
				v0.03c-0.06,0.02-0.15,0.05-0.31,0.09c-0.4,0.12-0.33,2.28-0.33,2.28v6.49l0.64-0.01v0.01l0.04,0l0.04,0v-0.01l0.64,0.01v-6.49
				C998.4,448.03,998.47,445.87,998.07,445.75z"/>
			<path class="st6" d="M1075.4,495.35v-13.29c0,0-0.43-4.48,2.15-4.73s2.59-0.25,2.59-0.25v18.43L1075.4,495.35z"/>
			<path class="st6" d="M1090.38,476.12c-1.03-0.1-1.64-0.17-2.01-0.2v-0.06c0,0-0.01,0-0.29,0.03c-0.28-0.03-0.29-0.03-0.29-0.03
				v0.06c-0.37,0.04-0.98,0.1-2.01,0.2c-2.59,0.26-2.16,5.04-2.16,5.04v14.35l4.17-0.02v0.02l0.29-0.01l0.29,0.01v-0.02l4.17,0.02
				v-14.35C1092.53,481.16,1092.96,476.38,1090.38,476.12z"/>
			<path class="st6" d="M1101.63,495.35v-13.29c0,0,0.43-4.48-2.15-4.73s-2.59-0.25-2.59-0.25v18.43L1101.63,495.35z"/>
			<path class="st6" d="M1086.59,445.75c-0.16-0.05-0.25-0.08-0.31-0.09v-0.03c0,0,0,0-0.04,0.01c-0.04-0.01-0.04-0.01-0.04-0.01
				v0.03c-0.06,0.02-0.15,0.05-0.31,0.09c-0.4,0.12-0.33,2.28-0.33,2.28v6.49l0.64-0.01v0.01l0.04,0l0.04,0v-0.01l0.64,0.01v-6.49
				C1086.92,448.03,1086.98,445.87,1086.59,445.75z"/>
			<path class="st6" d="M1089.85,445.75c-0.16-0.05-0.25-0.08-0.31-0.09v-0.03c0,0,0,0-0.04,0.01c-0.04-0.01-0.04-0.01-0.04-0.01
				v0.03c-0.06,0.02-0.15,0.05-0.31,0.09c-0.4,0.12-0.33,2.28-0.33,2.28v6.49l0.64-0.01v0.01l0.04,0l0.04,0v-0.01l0.64,0.01v-6.49
				C1090.18,448.03,1090.25,445.87,1089.85,445.75z"/>
		</g>
		<path class="st6" d="M1137,530.18v-9.14c0,0-0.3-3.08,1.48-3.25s1.78-0.17,1.78-0.17v12.67L1137,530.18z"/>
		<path class="st6" d="M1150.21,517.8c-1.33-0.17-1.33-0.17-1.33-0.17s0,0-1.33,0.17c-1.33,0.17-1.11,3.25-1.11,3.25v9.14l2.44,0.11
			l2.44-0.11v-9.14C1151.33,521.05,1151.55,517.96,1150.21,517.8z"/>
		<path class="st6" d="M1160.76,530.18v-9.14c0,0,0.3-3.08-1.48-3.25s-1.78-0.17-1.78-0.17v12.67L1160.76,530.18z"/>
		<polyline class="st6" points="1155.65,502.07 1156.82,502.07 1159.35,513.55 		"/>
		<polyline class="st6" points="1153.81,487.19 1154.97,487.19 1157.5,498.67 		"/>
		<polygon class="st6" points="1148.3,487.29 1150.69,487.34 1149.5,496.62 		"/>
		<polygon class="st6" points="1150.5,482.18 1148.49,482.15 1149.5,474.39 		"/>
		<polygon class="st6" points="1148.3,502.46 1150.69,502.5 1149.5,511.79 		"/>
		<polygon class="st6" points="1151.34,465.08 1148.88,465.08 1150.54,424.97 		"/>
		<polyline class="st6" points="1150.11,469.79 1151.28,469.79 1153.81,481.28 		"/>
		<polyline class="st6" points="1143.96,502.07 1142.79,502.07 1140.26,513.55 		"/>
		<polyline class="st6" points="1145.8,487.19 1144.64,487.19 1142.11,498.67 		"/>
		<polyline class="st6" points="1149.5,469.79 1148.33,469.79 1145.8,481.28 		"/>
	</g>
	<circle class="st8" cx="995.3" cy="508.3" r="194.54"/>
	<g id="Illustration_12_6_">
		<g>
			<path class="st10" d="M1513.88,426.56c12.07-3,17.59,4.18,19.56,14.91c2.58-18.35,29.75-19.19,30.59,0.5
				c3.61-8.33,14.61-8.15,20.46-2.12c2,2.07,6.57,8.31,4.61,11.65c-1.6,2.72-8.21,1.58-11.65,1.58l-74.18-1.29
				C1503.27,441.68,1501.73,429.58,1513.88,426.56z"/>
		</g>
	</g>
	<g id="Illustration_12_5_">
		<g>
			<path class="st10" d="M658.39,271.98c12.07-3,17.59,4.18,19.56,14.91c2.58-18.35,29.75-19.19,30.59,0.5
				c3.61-8.33,14.61-8.15,20.46-2.12c2,2.07,6.57,8.31,4.61,11.65c-1.6,2.72-8.21,1.58-11.65,1.58l-74.18-1.29
				C647.78,287.1,646.23,275,658.39,271.98z"/>
		</g>
	</g>
	<g id="Illustration_12_3_">
		<g>
			<path class="st10" d="M299.79,484.3c-8.45-2.1-12.31,2.93-13.69,10.43c-1.8-12.84-20.82-13.43-21.4,0.35
				c-2.53-5.83-10.22-5.71-14.31-1.48c-1.4,1.45-4.6,5.82-3.22,8.15c1.12,1.91,5.75,1.11,8.15,1.11l51.91-0.9
				C307.22,494.88,308.3,486.41,299.79,484.3z"/>
		</g>
	</g>
	<g>
		<circle class="st11" cx="1802.5" cy="407.93" r="4.21"/>
	</g>
	<g>
		<circle class="st11" cx="1546.39" cy="320.25" r="4.21"/>
	</g>
	<g>
		<circle class="st11" cx="1798.29" cy="212.1" r="4.21"/>
	</g>
	<g>
		<circle class="st11" cx="1691.96" cy="490.22" r="4.21"/>
	</g>
	<g>
		<circle class="st11" cx="1890.62" cy="556.92" r="4.21"/>
	</g>
	<g>
		<circle class="st11" cx="194.79" cy="407.93" r="4.21"/>
	</g>
	<g>
		<circle class="st11" cx="450.9" cy="320.25" r="4.21"/>
	</g>
	<g>
		<circle class="st11" cx="199" cy="212.1" r="4.21"/>
	</g>
	<g>
		<circle class="st11" cx="382.19" cy="456.46" r="4.21"/>
	</g>
	<g>
		<circle class="st11" cx="106.67" cy="556.92" r="4.21"/>
	</g>
	<g>
		<g>
			<polygon class="st9" points="604.01,560.87 604.01,622.59 521.59,622.59 523.04,541.64 573.89,532.77 			"/>
			<g>
				<polygon class="st11" points="470.05,566.95 565.06,562.52 583.53,521.64 487.03,524.38 				"/>
				<polygon class="st11" points="583.53,521.64 604.01,560.87 573.89,532.77 				"/>
				<polygon class="st3" points="565.06,562.52 563.69,633.45 470.98,633.55 470.05,566.95 				"/>
			</g>
		</g>
		<polygon class="st9" points="604.01,622.59 563.69,633.45 563.69,598.03 		"/>
		<polygon class="st6" points="496.7,598.03 526.79,598.03 526.79,633.55 497.13,633.55 		"/>
		<polygon class="st4" points="486.38,527.2 473.87,562.52 497.41,562.52 503.06,527.2 		"/>
		<polygon class="st4" points="504.69,527.2 498.92,562.52 518.91,560.87 524.3,527.2 		"/>
		<polygon class="st4" points="526.23,527.2 520.46,561.25 540.46,560.87 545.84,527.2 		"/>
		<polygon class="st4" points="549.28,527.2 543.51,561.25 563.51,560.87 575.23,527.2 		"/>
		<rect x="538.85" y="574.45" class="st6" width="14.82" height="52.28"/>
	</g>
	<g>
		<path class="st9" d="M1409.94,466.65c-2.94,0-5.77,0.5-8.43,1.42c-5.36-7.18-14.83-11.96-25.63-11.96
			c-16.72,0-30.27,11.43-30.27,25.53c0,3.04,0.63,5.95,1.79,8.65c-1.15,3.32-1.79,6.92-1.79,10.67c0,16.72,12.46,30.27,27.84,30.27
			c8.04,0,15.29-3.71,20.37-9.64c4.55,3.52,10.11,5.6,16.12,5.6c15.38,0,27.84-13.55,27.84-30.27S1425.31,466.65,1409.94,466.65z"/>
		<polygon class="st6" points="1385.13,524.62 1379.66,617.76 1402.44,617.76 1395.71,512.14 		"/>
		<polygon class="st6" points="1391.05,538.45 1418.49,515.4 1422.6,521.17 1391.05,545.17 		"/>
		<polygon class="st6" points="1388.09,568.22 1365.58,549.11 1361.46,554.87 1388.09,574.94 		"/>
		<path class="st3" d="M1443.22,499.18c-1.54,0-3.02,0.26-4.41,0.74c-2.8-3.75-7.75-6.25-13.39-6.25c-8.74,0-15.82,5.97-15.82,13.34
			c0,1.59,0.33,3.11,0.93,4.52c-0.6,1.74-0.93,3.61-0.93,5.58c0,8.74,6.51,15.82,14.55,15.82c4.2,0,7.99-1.94,10.65-5.04
			c2.38,1.84,5.28,2.93,8.42,2.93c8.04,0,14.55-7.08,14.55-15.82C1457.77,506.26,1451.26,499.18,1443.22,499.18z"/>
		<path class="st9" d="M1366.75,559.63c0.41-1.07,0.62-2.17,0.65-3.27c3.36-0.96,6.41-3.75,7.9-7.68c2.31-6.09,0.03-12.6-5.11-14.56
			c-1.11-0.42-2.25-0.59-3.4-0.55c-1.05-0.88-2.27-1.61-3.64-2.13c-6.09-2.31-12.75,0.35-14.88,5.95c-1.11,2.93-0.76,6.08,0.69,8.75
			c-1.91,1.17-3.44,2.91-4.27,5.1c-2.13,5.6,1.08,12.02,7.17,14.33S1364.62,565.23,1366.75,559.63z"/>
		<g>
			<g>
				<g>
					<g>
						<g>
							<g>
								<path class="st10" d="M1394.36,500.83c-1.31,0-2.72-0.17-4.21-0.5c-0.33-0.07-0.56-0.38-0.54-0.72
									c0.01-0.11,0.85-11.02,16.4-13.77c0.2-0.04,0.41,0.02,0.57,0.15c0.16,0.13,0.25,0.33,0.24,0.53c0,0.32-0.13,7.93-5.18,11.95
									C1399.66,500.05,1397.23,500.83,1394.36,500.83z M1391.08,499.11c4.02,0.77,7.28,0.2,9.7-1.72c3.6-2.86,4.43-8,4.61-10.03
									C1393.6,489.78,1391.46,496.98,1391.08,499.11z"/>
							</g>
						</g>
						<g>
							<g>
								<path class="st10" d="M1386.26,500.83c-2.85,0-5.24-0.79-7.15-2.36c-4.89-4.02-4.75-11.64-4.74-11.96
									c0.01-0.2,0.1-0.39,0.25-0.52c0.16-0.13,0.36-0.18,0.56-0.15c8.09,1.43,11.96,5.08,13.78,7.88c2,3.08,2.04,5.82,2.04,5.93
									c0,0.33-0.22,0.61-0.54,0.68C1388.97,500.67,1387.57,500.83,1386.26,500.83z M1375.77,487.37c0.11,2,0.73,7.18,4.22,10.04
									c2.33,1.91,5.55,2.48,9.58,1.7C1389.32,497.01,1387.59,489.77,1375.77,487.37z"/>
							</g>
						</g>
						<g>
							<path class="st10" d="M1396.94,460.04c-0.24,0.3-0.19,0.73,0.11,0.97c0.13,0.1,0.28,0.15,0.43,0.15
								c0.2,0,0.41-0.09,0.54-0.26l0.69-0.87c-0.16-0.45-0.37-0.92-0.65-1.41L1396.94,460.04z"/>
							<path class="st10" d="M1403.08,453.38c-0.3-0.24-0.73-0.19-0.97,0.11l-2.04,2.58c0.29,0.42,0.55,0.84,0.77,1.25l2.35-2.97
								C1403.43,454.05,1403.38,453.62,1403.08,453.38z"/>
							<path class="st10" d="M1398.53,458.03c0.28,0.46,0.51,0.92,0.69,1.36l1.16-1.47c-0.21-0.42-0.46-0.85-0.75-1.28
								L1398.53,458.03z"/>
						</g>
						<g>
							<path class="st10" d="M1390.51,454.33c-0.03,0-0.05-0.01-0.07-0.01l-0.06,0c-0.01,0-0.02,0-0.03,0c-0.01,0-0.01,0-0.02,0
								l-0.38-0.01l-0.12,0.03c-0.04,0.01-0.08,0.02-0.11,0.02c-0.03,0-0.06,0.01-0.09,0.01v4.51c0,0.38,0.31,0.69,0.69,0.69
								c0.38,0,0.69-0.31,0.69-0.69v-4.5c-0.01,0-0.02,0-0.03,0L1390.51,454.33z"/>
							<path class="st10" d="M1390.22,451.96c-0.02,0-0.04,0-0.06,0c-0.02,0-0.04,0-0.06,0c-0.16,0-0.32,0.02-0.49,0.03v1.69
								c0.01,0,0.02,0,0.03,0l0.22-0.06l0.49,0.02l0.15-0.01c0.03,0.01,0.05,0.01,0.08,0.02l0.42,0.04v-1.69c-0.01,0-0.01,0-0.02,0
								C1390.73,451.99,1390.48,451.96,1390.22,451.96z"/>
							<path class="st10" d="M1389.75,451.29c0.12-0.01,0.24-0.02,0.35-0.02l0.06,0l0.06,0c0.15,0,0.29,0.01,0.43,0.02
								c0.11,0.01,0.22,0.02,0.33,0.02c0,0,0.01,0,0.02,0v-2.34c0-0.38-0.31-0.69-0.69-0.69c-0.38,0-0.69,0.31-0.69,0.69v2.33
								C1389.66,451.29,1389.71,451.29,1389.75,451.29z"/>
						</g>
						<g>
							<path class="st10" d="M1383.75,460.89c0.14,0.17,0.34,0.26,0.54,0.26c0.15,0,0.3-0.05,0.43-0.15
								c0.3-0.24,0.35-0.67,0.11-0.97l-1.76-2.23c-0.31,0.42-0.56,0.84-0.77,1.26L1383.75,460.89z"/>
							<path class="st10" d="M1381.84,458.47c0.22-0.41,0.48-0.82,0.79-1.23l-1.08-1.36c-0.32,0.39-0.59,0.78-0.84,1.17
								L1381.84,458.47z"/>
							<path class="st10" d="M1380.26,456.48c0.25-0.39,0.53-0.78,0.85-1.16l-1.44-1.83c-0.24-0.3-0.67-0.35-0.97-0.11
								c-0.3,0.24-0.35,0.67-0.11,0.97L1380.26,456.48z"/>
						</g>
						<g>
							<path class="st10" d="M1391,470.91l4.63-6.79c0.22-0.32,0.13-0.75-0.18-0.96c-0.32-0.22-0.75-0.13-0.96,0.18l-4.75,6.96
								c-0.08,0.11-0.12,0.25-0.12,0.39v14.15h1.38V470.91z"/>
							<rect x="1389.61" y="485.54" class="st10" width="1.38" height="1.7"/>
							<path class="st10" d="M1391,503.1v-15.16h-1.38v15.55c0,0.24,0.13,0.46,0.33,0.59"/>
						</g>
					</g>
					<g>
						<path class="st10" d="M1390.31,471.39c-0.24,0-0.47-0.12-0.6-0.34l-4.14-6.96c-0.2-0.33-0.09-0.75,0.24-0.95
							c0.33-0.2,0.75-0.09,0.95,0.24l4.14,6.96c0.2,0.33,0.09,0.75-0.24,0.95C1390.55,471.36,1390.43,471.39,1390.31,471.39z"/>
					</g>
				</g>
				<path class="st6" d="M1387.24,487.24h6.14c0.2,0,0.36-0.16,0.36-0.37v-4.9c1.85-1.25,8.93-6.91,7.9-19.7
					c-0.02-0.37-0.66-8.92-9.73-10.2c-0.09-0.01-0.39-0.08-0.39-0.08l-0.5,0c-0.01,0-0.03,0-0.04,0c-0.25,0-0.5-0.04-0.76-0.04
					c-0.02,0-0.04,0-0.06,0c-0.02,0-0.04,0-0.06,0c-0.2,0-0.39,0.04-0.6,0.04c-0.02,0-0.13,0-0.14,0l-0.55,0.06
					c-9.32,1.25-9.83,10.13-9.83,10.21c-1.03,12.8,6.05,18.46,7.9,19.71v4.9C1386.87,487.08,1387.03,487.24,1387.24,487.24z
					 M1380.67,462.38c0.02-0.32,0.48-7.9,8.97-8.7l0.22-0.06l0.49,0.02l0.15-0.01c0.03,0.01,0.05,0.01,0.08,0.02l0.45,0.04
					c8.43,0.79,8.89,8.37,8.91,8.72c1.08,13.41-7.38,18.31-7.46,18.36l-0.25,0.14c-0.12,0.06-0.19,0.19-0.19,0.32v4.32h-3.46v-4.32
					c0-0.13-0.07-0.26-0.19-0.32l-0.25-0.14C1388.04,480.71,1379.59,475.87,1380.67,462.38z"/>
			</g>
		</g>
		<path class="st3" d="M1439.26,557.13c-1.14,0-2.23,0.19-3.26,0.55c-2.07-2.78-5.74-4.63-9.92-4.63c-6.47,0-11.71,4.42-11.71,9.88
			c0,1.18,0.24,2.3,0.69,3.35c-0.45,1.29-0.69,2.68-0.69,4.13c0,6.47,4.82,11.71,10.77,11.71c3.11,0,5.92-1.44,7.88-3.73
			c1.76,1.36,3.91,2.17,6.24,2.17c5.95,0,10.77-5.24,10.77-11.71C1450.03,562.38,1445.21,557.13,1439.26,557.13z"/>
		<polygon class="st6" points="1429.13,578.78 1426.84,617.76 1436.38,617.76 1433.56,573.55 		"/>
		<polygon class="st6" points="1431.61,584.56 1443.1,574.92 1444.82,577.33 1431.61,587.38 		"/>
		<polygon class="st6" points="1430.38,597.02 1420.95,589.03 1419.23,591.44 1430.38,599.84 		"/>
		<path class="st9" d="M1452.14,568.09c-0.59,0-1.17,0.1-1.71,0.29c-1.08-1.45-3-2.42-5.18-2.42c-3.38,0-6.12,2.31-6.12,5.16
			c0,0.61,0.13,1.2,0.36,1.75c-0.23,0.67-0.36,1.4-0.36,2.16c0,3.38,2.52,6.12,5.63,6.12c1.63,0,3.09-0.75,4.12-1.95
			c0.92,0.71,2.04,1.13,3.26,1.13c3.11,0,5.63-2.74,5.63-6.12C1457.77,570.83,1455.25,568.09,1452.14,568.09z"/>
		<path class="st9" d="M1420.8,593.46c0.16-0.42,0.24-0.86,0.26-1.29c1.33-0.38,2.53-1.48,3.12-3.03c0.91-2.41,0.01-4.98-2.02-5.75
			c-0.44-0.17-0.89-0.23-1.34-0.22c-0.41-0.35-0.9-0.64-1.44-0.84c-2.41-0.91-5.04,0.14-5.88,2.35c-0.44,1.16-0.3,2.4,0.27,3.46
			c-0.76,0.46-1.36,1.15-1.69,2.01c-0.84,2.21,0.43,4.75,2.83,5.66C1417.33,596.72,1419.96,595.67,1420.8,593.46z"/>
	</g>
	<g>
		<path class="st6" d="M679.36,596.4c2.21,0.33,2.1-2.37,2.03-4.11c-0.07-1.68-0.84-2.29-2.01-1.67
			C676.38,590.37,675.5,595.83,679.36,596.4z"/>
		<path class="st6" d="M674.57,594.66c0,0-6.52-0.33-11.26,4.35c-6.05,5.98-9.44,7.07-13.82,6.9l0.78,1.64c0,0,2.78,0.38,6.29-1.01
			c3.51-1.39,8.56-7.25,11.59-8.53c3.8-1.6,6.85-2.11,6.85-2.11L674.57,594.66z"/>
		<path class="st6" d="M693.32,608.16c-1.63-2.56-2.37-3.03-4.93-4.41c-1.98-1.07-4.6-1.58-7.8-1.53c-0.74,0.01-1.46,0.09-2.16,0.23
			c-0.42-1.38-0.87-2.85-1.35-4.42l-1.4-5.48l-0.29,0.02c-0.24-0.78-0.49-1.58-0.74-2.4c0.7-1.18,2.25-4.18,1.28-5.91
			c-0.31-0.55-0.98-1.2-2.42-1.17c-2.57,0.04-4.56,0.75-5.74,1.18c-0.17,0.06-0.36,0.13-0.51,0.18c-0.1-0.03-0.2-0.05-0.31-0.04
			c-0.52,0.01-0.94,0.44-0.93,0.96c0.01,0.34,0.17,0.65,0.45,0.84c0.51,0.36,1.02,0.18,1.93-0.15c1.08-0.38,2.88-1.03,5.14-1.07
			c0.23,0,0.63,0.02,0.74,0.21c0.36,0.64-0.48,2.8-1.46,4.35c-0.15,0.23-0.19,0.52-0.1,0.79c0.08,0.26,0.16,0.52,0.24,0.79h0
			l1.77,5.4l-0.11,0.01c0.21,0.69,0.42,1.38,0.64,2.08l0.34,1.34l-19.89,14.15c-0.3-0.24-0.63-0.37-0.94-0.3
			c-0.34-0.04-0.67-0.03-0.97,0.02l-8.17-17.61l0,0l-1.45-3.13l-1.39-2.99c0.2-0.07,0.39-0.13,0.55-0.17c1.29-0.34,5-0.77,5.04-2.63
			c-0.24-0.05-0.54-0.1-0.78-0.25c-1.75-0.13-3.5,0.01-5.25-0.23c-1.5-0.2-2.69-0.97-4.1,0.06c-1.17,0.85-1.75,2.87-0.4,3.88
			c0.78,0.58,1.98,0.36,3.14-0.01l2.16,4.66l-3.77,8.42c-1.69-0.56-3.71-0.82-6.03-0.78c-5.69,0.09-10.41,4.14-12.04,10.3
			c-1.67,6.32,0.59,12.36,5.74,15.4c2,1.18,4.71,1.77,7.53,1.72c1.48-0.02,2.99-0.22,4.44-0.61c3.39-0.9,6.01-2.69,7.36-5.04
			c1.16-2.01,1.79-4.39,1.91-6.8l2.8-0.17c0.1,0.45,0.3,0.9,0.63,1.29c0.16,0.19,0.32,0.35,0.49,0.5c-0.09,0.22-0.19,0.44-0.28,0.65
			c-0.4,0.92-0.81,1.88-1.17,2.82l-0.46,1.19l1.27,0.1c0.28,0.02,0.56,0.03,0.84,0.02c0.58-0.01,1.17-0.06,1.74-0.12
			c0.56-0.05,1.09-0.1,1.6-0.11l-0.03-1.9c-0.59,0.01-1.17,0.06-1.74,0.12c-0.31,0.03-0.62,0.06-0.92,0.08
			c0.2-0.49,0.41-0.97,0.62-1.45c0.09-0.21,0.18-0.41,0.27-0.62c1.82,0.21,3.55-1.36,3.17-3.76c-0.05-0.3-0.16-0.64-0.31-0.99
			l19.43-13.83c0.12,0.39,0.24,0.78,0.36,1.17c-3.84,1.45-6.83,4.89-8.06,9.54c-1.67,6.32,0.59,12.36,5.74,15.4
			c2,1.18,4.71,1.77,7.53,1.72c1.48-0.02,2.99-0.22,4.44-0.61c3.39-0.9,6.01-2.69,7.36-5.04
			C696.32,619.31,696.19,612.65,693.32,608.16z M644.76,623.83c-1.1,1.91-3.3,3.38-6.2,4.15c-3.71,0.98-7.93,0.61-10.53-0.91
			c-5.35-3.15-5.97-9.12-4.87-13.28c1.7-6.46,6.58-8.82,10.24-8.89c2.03-0.03,3.77,0.18,5.22,0.63l-4.25,9.5
			c-2-0.08-3.19,2.32-1.95,3.82c1.16,1.41,2.9,1.11,3.59-0.12l10.37-0.64C646.26,620.15,645.73,622.15,644.76,623.83z
			 M636.23,616.83c-0.06-0.22-0.15-0.45-0.27-0.68l4.42-9.89c2.22,1.2,2.71,1.49,4.12,3.7c1.13,1.77,1.76,3.97,1.89,6.23
			L636.23,616.83z M651.28,615.89l-2.98,0.19c-0.16-2.56-0.89-5.07-2.2-7.13c-1.63-2.56-2.37-3.03-4.93-4.41
			c-0.01,0-0.01-0.01-0.02-0.01l3.08-6.88l7.89,17C651.75,615,651.47,615.43,651.28,615.89z M691.98,623.04
			c-1.1,1.91-3.3,3.38-6.2,4.15c-3.71,0.98-7.93,0.61-10.53-0.91c-5.35-3.15-5.97-9.12-4.87-13.28c1.2-4.55,3.97-7.07,6.79-8.18
			c1.28,4.18,2.41,7.92,3.07,10.18c-0.74,0.82-0.92,2.12-0.14,3.06c1.59,1.92,4.24,0.67,3.86-1.77c-0.13-0.83-0.94-2.2-1.68-2.04
			c-0.1-0.01-0.19-0.01-0.29-0.01c-0.62-2.14-1.62-5.46-2.99-9.95c0.56-0.11,1.1-0.16,1.63-0.17c2.87-0.05,5.18,0.39,6.87,1.3
			c2.31,1.25,2.79,1.51,4.23,3.76C694.19,613.05,694.3,619.01,691.98,623.04z"/>
	</g>
	<g>
		<path class="st12" d="M1483.76,619.33c4.55,3.51,9.67,7.47,15.48,5.66c0.31-0.1,0.61-0.21,0.92-0.33
			c0.14-0.06,0.27-0.16,0.36-0.29c0.18-0.24,0.22-0.56,0.1-0.84c-0.09-0.21-0.25-0.37-0.46-0.46c-0.21-0.09-0.45-0.09-0.66,0
			c-5.26,2.18-10.07-1.52-14.7-5.1c-4.47-3.45-8.7-6.71-13.04-4.37c-0.42,0.22-0.57,0.75-0.35,1.16c0.11,0.2,0.29,0.35,0.51,0.42
			c0.22,0.07,0.45,0.04,0.65-0.07C1475.96,613.3,1479.74,616.23,1483.76,619.33z M1500.19,624.12L1500.19,624.12L1500.19,624.12
			L1500.19,624.12z"/>
		<path class="st12" d="M1490.53,613.49l-1.01-0.74c-0.19-0.13-0.31-0.33-0.34-0.56c-0.04-0.23,0.02-0.46,0.16-0.64
			c0.28-0.38,0.81-0.46,1.2-0.19l1.01,0.74c3.9,2.87,7.26,5.34,12.15,4.94c1.79-0.15,3.63-0.82,5.58-1.54
			c3.56-1.31,7.24-2.66,10.96-0.82c0.21,0.1,0.36,0.28,0.43,0.49c0.07,0.22,0.06,0.45-0.04,0.66l-0.08,0.13
			c-0.11,0.15-0.27,0.26-0.44,0.31c-0.2,0.06-0.43,0.05-0.63-0.05c-3.06-1.51-6.24-0.35-9.61,0.89c-1.97,0.72-4,1.47-6.03,1.64
			C1498.31,619.21,1494.53,616.43,1490.53,613.49z"/>
		<path class="st12" d="M1502.42,606.18c-0.06-0.22-0.21-0.4-0.41-0.51c-0.2-0.11-0.43-0.14-0.65-0.07
			c-2.81,0.81-5.94-0.09-8.96-0.97c-4.83-1.39-9.81-2.83-13.93,2.15c-0.3,0.36-0.25,0.9,0.11,1.21c0.37,0.31,0.9,0.26,1.21-0.11
			c3.41-4.11,7.45-2.94,12.13-1.59c3.26,0.94,6.64,1.91,9.92,0.97c0.01,0,0.02,0,0.03-0.01c0.11-0.03,0.21-0.09,0.3-0.17l0,0
			C1502.41,606.84,1502.51,606.5,1502.42,606.18z M1501.89,606.75L1501.89,606.75L1501.89,606.75L1501.89,606.75z"/>
		<path class="st12" d="M1464.56,619.46c0.4-0.28,0.87-0.24,1.17,0.09c2.18,2.37,5.58,1.45,8.32,0.72c0.45-0.12,0.93,0.15,1.05,0.61
			c0.08,0.32-0.01,0.65-0.26,0.86c-0.09,0.08-0.2,0.14-0.32,0.18c-0.01,0-0.02,0.01-0.03,0.01c-3.02,0.81-7.15,1.91-10.03-1.22
			C1464.15,620.36,1464.17,619.81,1464.56,619.46z"/>
	</g>
	<g>
		<g>
			<path class="st6" d="M887.46,590.28h-44.53c-0.8,0-1.44-0.57-1.44-1.27c0-0.7,0.65-1.27,1.44-1.27h44.53
				c0.8,0,1.44,0.57,1.44,1.27C888.9,589.72,888.25,590.28,887.46,590.28z"/>
		</g>
		<g>
			<rect x="846.89" y="591.55" class="st6" width="37.59" height="6.94"/>
			<rect x="846.89" y="599.47" class="st6" width="37.59" height="8.03"/>
			<rect x="846.89" y="617.5" class="st6" width="37.59" height="9.55"/>
			<rect x="846.89" y="608.48" class="st6" width="37.59" height="8.03"/>
		</g>
		<rect x="849.77" y="624.89" class="st6" width="4.92" height="6.33"/>
		<rect x="876.12" y="624.89" class="st6" width="4.92" height="6.33"/>
	</g>
	<g>
		<path class="st9" d="M1023.78,616.51c0,0-2.46-45.68,20.61-45.68s73.22,0,73.22,0s26.35-1.94,35.18,11.78
			c8.83,13.72,14.71,21.86,14.71,21.86v18.34h-143.73V616.51z"/>
		<circle class="st3" cx="1046.41" cy="619.04" r="12.5"/>
		<circle class="st3" cx="1142.99" cy="619.04" r="12.5"/>
		<path class="st13" d="M1045.62,576.23c0,0-9.18-1.19-11.71,9.22v8.44h23.26v-17.7L1045.62,576.23z"/>
		<rect x="1060" y="576.18" class="st13" width="19.62" height="17.7"/>
		<rect x="1083.05" y="576.18" class="st13" width="19.62" height="17.7"/>
		<rect x="1105.57" y="576.18" class="st13" width="19.62" height="17.7"/>
		<path class="st13" d="M1128.28,576.18v17.7h27.21l-9.06-12.26C1146.42,581.62,1139.07,576.18,1128.28,576.18z"/>
		<path class="st6" d="M1167.51,604.47c0,0-6.38-2.44-6.38,2.07s0,9.41,0,9.41h6.38V604.47z"/>
	</g>
	<g>
		<g>
			<polygon class="st9" points="1263.49,592.75 1317.48,592.75 1312.47,615.45 1273.47,615.45 			"/>
		</g>
		<g>
			<path class="st9" d="M1309.77,624.97h-36.3c-0.55,0-0.99-0.44-0.99-0.99c0-0.55,0.44-0.99,0.99-0.99H1309l7.52-30.49
				c0.01-0.03,0.02-0.06,0.03-0.1l2.31-6.47c0.61-1.81,3.07-5.18,7.93-4.84c0.54,0.04,0.95,0.51,0.92,1.05
				c-0.04,0.54-0.51,0.95-1.05,0.92c-4.58-0.31-5.92,3.48-5.93,3.52l-2.3,6.44l-7.69,31.19
				C1310.62,624.67,1310.23,624.97,1309.77,624.97z"/>
		</g>
		<circle class="st6" cx="1279.18" cy="627.48" r="3.08"/>
		<circle class="st6" cx="1304.77" cy="627.48" r="3.08"/>
	</g>
	<g>
		<g>
			<path class="st9" d="M717.16,485.78c-0.15,0-0.29-0.04-0.43-0.11c-37.92-21.64-68.59-20.52-87.64-15.77
				c-20.65,5.15-32.49,15.56-32.61,15.66c-0.36,0.32-0.91,0.29-1.22-0.07c-0.32-0.36-0.29-0.91,0.07-1.22
				c0.48-0.43,48.59-42.15,122.27-0.11c0.42,0.24,0.56,0.77,0.32,1.18C717.75,485.62,717.46,485.78,717.16,485.78z"/>
		</g>
		<g>
			<g>
				<g>
					<g>
						<g>
							<g>
								<path class="st10" d="M663.2,499.66c-1.69,0-3.49-0.21-5.41-0.64c-0.43-0.09-0.72-0.49-0.69-0.92
									c0.01-0.14,1.09-14.17,21.07-17.7c0.26-0.05,0.53,0.03,0.73,0.2c0.2,0.17,0.32,0.42,0.31,0.69c0,0.41-0.17,10.2-6.66,15.35
									C670.02,498.65,666.89,499.66,663.2,499.66z M658.98,497.45c5.17,1,9.36,0.25,12.46-2.2c4.63-3.67,5.69-10.28,5.93-12.89
									C662.23,485.45,659.47,494.71,658.98,497.45z"/>
							</g>
						</g>
						<g>
							<g>
								<path class="st10" d="M652.8,499.66c-3.66,0-6.74-1.01-9.2-3.04c-6.28-5.17-6.11-14.96-6.09-15.38
									c0.01-0.26,0.13-0.5,0.33-0.67c0.2-0.16,0.46-0.23,0.72-0.19c10.4,1.84,15.37,6.52,17.71,10.13
									c2.57,3.96,2.62,7.48,2.62,7.62c0,0.42-0.29,0.78-0.7,0.87C656.27,499.45,654.47,499.66,652.8,499.66z M639.31,482.35
									c0.14,2.57,0.94,9.22,5.43,12.91c2.99,2.46,7.13,3.19,12.31,2.19C656.72,494.76,654.5,485.45,639.31,482.35z"/>
							</g>
						</g>
						<g>
							<path class="st10" d="M666.51,447.23c-0.3,0.39-0.24,0.94,0.15,1.25c0.16,0.13,0.36,0.19,0.55,0.19
								c0.26,0,0.52-0.12,0.7-0.34l0.89-1.12c-0.21-0.57-0.48-1.19-0.84-1.81L666.51,447.23z"/>
							<path class="st10" d="M674.41,438.68c-0.39-0.3-0.94-0.24-1.25,0.15l-2.62,3.31c0.38,0.53,0.71,1.07,0.99,1.61l3.02-3.82
								C674.86,439.54,674.79,438.98,674.41,438.68z"/>
							<path class="st10" d="M668.56,444.65c0.36,0.59,0.65,1.18,0.88,1.75l1.49-1.89c-0.27-0.54-0.59-1.1-0.97-1.65L668.56,444.65z
								"/>
						</g>
						<g>
							<path class="st10" d="M658.25,439.9c-0.03,0-0.06-0.01-0.1-0.01l-0.08,0c-0.01,0-0.03,0-0.04,0c-0.01,0-0.02,0-0.03,0
								l-0.49-0.02l-0.15,0.04c-0.05,0.01-0.1,0.02-0.15,0.03c-0.04,0-0.08,0.01-0.12,0.01v5.79c0,0.49,0.4,0.89,0.89,0.89
								c0.49,0,0.89-0.4,0.89-0.89v-5.79c-0.01,0-0.03,0-0.04-0.01L658.25,439.9z"/>
							<path class="st10" d="M657.88,436.85c-0.03,0-0.05,0-0.08,0c-0.02,0-0.05,0-0.07,0c-0.21,0-0.42,0.03-0.63,0.04v2.18
								c0.01,0,0.02,0,0.04,0l0.28-0.07l0.62,0.02l0.2-0.01c0.03,0.01,0.07,0.02,0.1,0.02l0.54,0.05v-2.17c-0.01,0-0.01,0-0.02,0
								C658.53,436.89,658.22,436.85,657.88,436.85z"/>
							<path class="st10" d="M657.28,435.98c0.15-0.01,0.3-0.03,0.45-0.03l0.07,0l0.08,0c0.19,0,0.37,0.01,0.56,0.03
								c0.14,0.01,0.28,0.02,0.42,0.02c0,0,0.01,0,0.02,0v-3c0-0.49-0.4-0.89-0.89-0.89c-0.49,0-0.89,0.4-0.89,0.89v2.99
								C657.16,435.99,657.22,435.99,657.28,435.98z"/>
						</g>
						<g>
							<path class="st10" d="M649.56,448.33c0.18,0.22,0.44,0.34,0.7,0.34c0.19,0,0.39-0.06,0.55-0.19c0.39-0.3,0.45-0.86,0.15-1.25
								l-2.26-2.86c-0.4,0.54-0.72,1.09-0.99,1.62L649.56,448.33z"/>
							<path class="st10" d="M647.1,445.22c0.28-0.53,0.62-1.06,1.02-1.58l-1.38-1.75c-0.41,0.49-0.76,1-1.07,1.51L647.1,445.22z"/>
							<path class="st10" d="M645.08,442.65c0.32-0.5,0.68-1,1.09-1.48l-1.86-2.35c-0.3-0.39-0.86-0.45-1.25-0.15
								c-0.39,0.3-0.45,0.86-0.15,1.25L645.08,442.65z"/>
						</g>
						<g>
							<path class="st10" d="M658.88,461.21l5.95-8.72c0.28-0.41,0.17-0.96-0.23-1.24c-0.41-0.28-0.96-0.17-1.24,0.23l-6.1,8.95
								c-0.1,0.15-0.15,0.32-0.15,0.5v18.19h1.78V461.21z"/>
							<rect x="657.1" y="480.01" class="st10" width="1.78" height="2.19"/>
							<path class="st10" d="M658.88,502.58v-19.49h-1.78v19.99c0,0.31,0.16,0.6,0.42,0.76"/>
						</g>
					</g>
					<g>
						<path class="st10" d="M657.99,461.82c-0.3,0-0.6-0.15-0.76-0.43l-5.32-8.95c-0.25-0.42-0.11-0.97,0.31-1.22
							c0.42-0.25,0.97-0.11,1.22,0.31l5.32,8.95c0.25,0.42,0.11,0.97-0.31,1.22C658.3,461.78,658.15,461.82,657.99,461.82z"/>
					</g>
				</g>
				<path class="st6" d="M654.04,482.2h7.89c0.26,0,0.47-0.21,0.47-0.47v-6.3c2.38-1.6,11.47-8.88,10.15-25.32
					c-0.03-0.47-0.85-11.46-12.5-13.11c-0.11-0.02-0.5-0.11-0.5-0.11l-0.64,0c-0.02,0-0.04,0-0.05,0c-0.33,0-0.64-0.05-0.97-0.05
					c-0.03,0-0.05,0-0.08,0c-0.02,0-0.05,0-0.07,0c-0.25,0-0.5,0.05-0.77,0.05c-0.03,0-0.16,0-0.19,0.01l-0.71,0.08
					c-11.98,1.61-12.64,13.02-12.64,13.12c-1.33,16.45,7.77,23.73,10.15,25.33v6.3C653.57,481.99,653.78,482.2,654.04,482.2z
					 M645.61,450.24c0.02-0.41,0.61-10.15,11.53-11.18l0.28-0.07l0.62,0.02l0.2-0.01c0.03,0.01,0.07,0.02,0.1,0.02l0.58,0.05
					c10.84,1.02,11.43,10.76,11.45,11.21c1.39,17.24-9.48,23.53-9.59,23.59l-0.33,0.18c-0.15,0.08-0.24,0.24-0.24,0.41v5.55h-4.45
					v-5.55c0-0.17-0.09-0.33-0.24-0.41l-0.33-0.18C655.08,473.81,644.21,467.59,645.61,450.24z"/>
			</g>
		</g>
		<g>
			<path class="st9" d="M714,494.28c-0.35,0-0.68-0.21-0.81-0.56c-0.17-0.45,0.05-0.95,0.5-1.12l11.61-4.42l-3.61-11.17
				c-0.15-0.46,0.1-0.95,0.56-1.09c0.46-0.15,0.95,0.1,1.09,0.56l3.87,11.95c0.14,0.44-0.08,0.91-0.52,1.08l-12.37,4.71
				C714.21,494.27,714.11,494.28,714,494.28z"/>
		</g>
		<g>
			<path class="st9" d="M598.88,494.28c-0.1,0-0.21-0.02-0.31-0.06l-12.37-4.71c-0.43-0.16-0.66-0.64-0.52-1.08l3.87-11.95
				c0.15-0.45,0.64-0.7,1.09-0.56c0.46,0.15,0.71,0.64,0.56,1.09l-3.61,11.17l11.61,4.42c0.45,0.17,0.67,0.67,0.5,1.12
				C599.56,494.07,599.23,494.28,598.88,494.28z"/>
		</g>
	</g>
	<rect x="757.57" y="530.84" class="st13" width="10.31" height="93.67"/>
	<rect x="847.07" y="457.53" class="st13" width="25.19" height="93.67"/>
	<path class="st6" d="M1030.51,380.49c-49.15-9.39-96.61,22.85-106,72.01c-6.37,33.38,6.48,65.94,30.76,86.37l-43.15,72.16
		c-3.49,5.54-1.83,12.86,3.71,16.35l3.25,2.05c5.54,3.49,12.86,1.83,16.35-3.71l43.37-72.5c5.61,2.32,11.52,4.11,17.72,5.29
		c49.15,9.39,96.61-22.85,106-72.01C1111.9,437.33,1079.66,389.87,1030.51,380.49z M1086.1,483.35
		c-7.65,40.09-46.36,66.38-86.44,58.73c-40.09-7.65-66.38-46.36-58.73-86.44c7.65-40.09,46.36-66.38,86.44-58.73
		C1067.46,404.56,1093.75,443.26,1086.1,483.35z"/>
</g>
</svg>
