<?xml version="1.0" encoding="utf-8"?>
<!-- Generator: Adobe Illustrator 24.0.1, SVG Export Plug-In . SVG Version: 6.00 Build 0)  -->
<svg version="1.1" id="Calque_1" xmlns="http://www.w3.org/2000/svg" xmlns:xlink="http://www.w3.org/1999/xlink" x="0px" y="0px"
	 viewBox="0 0 1000 336.86" style="enable-background:new 0 0 1000 336.86;" xml:space="preserve">
<style type="text/css">
	.st0{fill:#008972;}
	.st1{fill:#00A58E;}
	.st2{fill:#E0BD21;}
	.st3{fill:none;}
	.st4{fill:#25AE93;}
	.st5{fill:#EB6C71;}
	.st6{fill:#40B4A1;}
	.st7{fill:#0065AE;}
	.st8{fill:#E8E8E8;}
	.st9{fill:#FFFFFF;}
</style>
<g>
	<g>
		<polyline class="st0" points="624.67,259.51 394.13,259.51 394.13,247.44 394.13,219 394.13,198.6 416.57,198.6 416.57,204.16 
			429.65,204.16 429.65,164.28 450.22,164.28 450.22,210.65 466.73,217.15 474.6,209.73 479.36,217.15 570.37,217.15 570.37,208.8 
			574.11,208.18 581.69,131.81 587.98,208.18 591.41,208.8 591.41,236.62 626.65,223.33 		"/>
		<polyline class="st0" points="554.21,223.09 549.45,217.12 541.58,223.09 499.05,217.87 499.05,202.93 478.48,188.69 
			478.48,197.43 465.39,197.43 465.39,179.86 449.06,179.86 449.06,224.58 449.06,247.44 		"/>
		<polygon class="st1" points="344.59,263.9 344.59,235.45 344.59,203.31 367.03,203.31 367.03,220.62 380.11,220.62 380.11,180.73 
			400.68,180.73 400.68,227.11 480.63,233.6 488.49,226.18 493.26,233.6 559.59,233.6 559.59,225.25 563.33,224.63 565.82,182.28 
			569.56,224.63 572.99,225.25 572.99,253.08 620.97,239.78 620.97,239.78 620.97,194.34 659.61,194.34 659.61,240.09 659.61,263.9 
					"/>
		<polygon class="st1" points="572.11,230.44 588.65,219.19 603.3,230.44 603.3,252.06 572.11,252.06 		"/>
		<rect x="585.8" y="228.53" class="st2" width="3.82" height="3.82"/>
		<rect x="382.2" y="187.72" class="st2" width="3.82" height="3.82"/>
		<rect x="360.48" y="208.26" class="st2" width="3.82" height="3.82"/>
		<g>
			<g>
				<rect x="486.68" y="198.05" class="st1" width="22.21" height="61.46"/>
				<path class="st1" d="M497.78,209.8L497.78,209.8c-5.13,0-9.32-4.19-9.32-9.32v-15.48c0-5.13,4.19-9.32,9.32-9.32h0
					c5.13,0,9.32,4.19,9.32,9.32v15.48C507.1,205.61,502.91,209.8,497.78,209.8z"/>
				<path class="st1" d="M498.64,170c-0.56-0.06-0.9-0.09-1.1-0.11v-0.03c0,0,0,0-0.16,0.02c-0.15-0.02-0.16-0.02-0.16-0.02v0.03
					c-0.2,0.02-0.54,0.05-1.1,0.11c-1.41,0.14-1.18,2.75-1.18,2.75v7.84l2.28-0.01v0.01l0.16-0.01l0.16,0.01v-0.01l2.28,0.01v-7.84
					C499.81,172.75,500.05,170.14,498.64,170z"/>
				<rect x="503.5" y="212.6" class="st1" width="36.9" height="46.91"/>
				<polygon class="st1" points="503.5,214.85 521.69,202.39 540.39,212.6 				"/>
				<rect x="487.59" y="186.7" class="st1" width="20.36" height="0.66"/>
				<polygon class="st1" points="496.65,170.33 497.38,166.18 497.78,170.33 				"/>
				<rect x="536.79" y="198.05" class="st1" width="22.21" height="61.46"/>
				<path class="st1" d="M547.9,209.8L547.9,209.8c-5.13,0-9.32-4.19-9.32-9.32v-15.48c0-5.13,4.19-9.32,9.32-9.32l0,0
					c5.13,0,9.32,4.19,9.32,9.32v15.48C557.22,205.61,553.02,209.8,547.9,209.8z"/>
				<path class="st1" d="M548.75,170c-0.56-0.06-0.9-0.09-1.1-0.11v-0.03c0,0,0,0-0.16,0.02c-0.15-0.02-0.16-0.02-0.16-0.02v0.03
					c-0.2,0.02-0.54,0.05-1.1,0.11c-1.41,0.14-1.18,2.75-1.18,2.75v7.84l2.28-0.01v0.01l0.16-0.01l0.16,0.01v-0.01l2.28,0.01v-7.84
					C549.93,172.75,550.16,170.14,548.75,170z"/>
				<rect x="537.71" y="186.7" class="st1" width="20.36" height="0.66"/>
				<polygon class="st1" points="546.77,170.33 547.5,166.18 547.9,170.33 				"/>
			</g>
			<path class="st2" d="M490.46,198.01v-7.26c0,0-0.24-2.45,1.18-2.58c1.41-0.13,1.41-0.13,1.41-0.13v10.07L490.46,198.01z"/>
			<path class="st2" d="M498.64,187.51c-0.56-0.06-0.9-0.09-1.1-0.11v-0.03c0,0,0,0-0.16,0.02c-0.15-0.02-0.16-0.02-0.16-0.02v0.03
				c-0.2,0.02-0.54,0.05-1.1,0.11c-1.41,0.14-1.18,2.75-1.18,2.75v7.84l2.28-0.01v0.01l0.16-0.01l0.16,0.01v-0.01l2.28,0.01v-7.84
				C499.81,190.26,500.05,187.65,498.64,187.51z"/>
			<path class="st2" d="M504.78,198.01v-7.26c0,0,0.24-2.45-1.18-2.58c-1.41-0.13-1.41-0.13-1.41-0.13v10.07L504.78,198.01z"/>
			<path class="st2" d="M496.57,170.93c-0.09-0.03-0.14-0.04-0.17-0.05v-0.01c0,0,0,0-0.02,0.01c-0.02-0.01-0.02-0.01-0.02-0.01
				v0.01c-0.03,0.01-0.08,0.02-0.17,0.05c-0.22,0.06-0.18,1.24-0.18,1.24v3.54l0.35-0.01v0.01l0.02,0l0.02,0v-0.01l0.35,0.01v-3.54
				C496.75,172.17,496.78,170.99,496.57,170.93z"/>
			<path class="st2" d="M498.35,170.93c-0.09-0.03-0.14-0.04-0.17-0.05v-0.01c0,0,0,0-0.02,0.01c-0.02-0.01-0.02-0.01-0.02-0.01
				v0.01c-0.03,0.01-0.08,0.02-0.17,0.05c-0.22,0.06-0.18,1.24-0.18,1.24v3.54l0.35-0.01v0.01l0.02,0l0.02,0v-0.01l0.35,0.01v-3.54
				C498.53,172.17,498.56,170.99,498.35,170.93z"/>
			<path class="st2" d="M540.58,198.01v-7.26c0,0-0.24-2.45,1.18-2.58c1.41-0.13,1.41-0.13,1.41-0.13v10.07L540.58,198.01z"/>
			<path class="st2" d="M548.75,187.51c-0.56-0.06-0.9-0.09-1.1-0.11v-0.03c0,0,0,0-0.16,0.02c-0.15-0.02-0.16-0.02-0.16-0.02v0.03
				c-0.2,0.02-0.54,0.05-1.1,0.11c-1.41,0.14-1.18,2.75-1.18,2.75v7.84l2.28-0.01v0.01l0.16-0.01l0.16,0.01v-0.01l2.28,0.01v-7.84
				C549.93,190.26,550.16,187.65,548.75,187.51z"/>
			<path class="st2" d="M554.9,198.01v-7.26c0,0,0.24-2.45-1.18-2.58c-1.41-0.13-1.41-0.13-1.41-0.13v10.07L554.9,198.01z"/>
			<path class="st2" d="M546.68,170.93c-0.09-0.03-0.14-0.04-0.17-0.05v-0.01c0,0,0,0-0.02,0.01c-0.02-0.01-0.02-0.01-0.02-0.01
				v0.01c-0.03,0.01-0.08,0.02-0.17,0.05c-0.22,0.06-0.18,1.24-0.18,1.24v3.54l0.35-0.01v0.01l0.02,0l0.02,0v-0.01l0.35,0.01v-3.54
				C546.86,172.17,546.9,170.99,546.68,170.93z"/>
			<path class="st2" d="M548.46,170.93c-0.09-0.03-0.14-0.04-0.17-0.05v-0.01c0,0,0,0-0.02,0.01c-0.02-0.01-0.02-0.01-0.02-0.01
				v0.01c-0.03,0.01-0.08,0.02-0.17,0.05c-0.22,0.06-0.18,1.24-0.18,1.24v3.54l0.35-0.01v0.01l0.02,0l0.02,0v-0.01l0.35,0.01v-3.54
				C548.64,172.17,548.68,170.99,548.46,170.93z"/>
		</g>
		<path class="st2" d="M574.21,217.03v-4.99c0,0-0.16-1.68,0.81-1.78c0.97-0.09,0.97-0.09,0.97-0.09v6.92L574.21,217.03z"/>
		<path class="st2" d="M581.42,210.26c-0.73-0.09-0.73-0.09-0.73-0.09s0,0-0.73,0.09c-0.73,0.09-0.61,1.78-0.61,1.78v4.99l1.33,0.06
			l1.33-0.06v-4.99C582.03,212.04,582.15,210.36,581.42,210.26z"/>
		<path class="st2" d="M587.18,217.03v-4.99c0,0,0.16-1.68-0.81-1.78c-0.97-0.09-0.97-0.09-0.97-0.09v6.92L587.18,217.03z"/>
		<polyline class="st2" points="584.4,201.68 585.03,201.68 586.41,207.95 		"/>
		<polyline class="st2" points="583.39,193.55 584.02,193.55 585.4,199.82 		"/>
		<polygon class="st2" points="580.38,193.61 581.69,193.63 581.03,198.7 		"/>
		<polygon class="st2" points="581.58,190.82 580.48,190.8 581.03,186.56 		"/>
		<polygon class="st2" points="580.38,201.89 581.69,201.91 581.03,206.98 		"/>
		<polygon class="st2" points="582.04,181.48 580.7,181.48 581.6,159.58 		"/>
		<polyline class="st2" points="581.37,184.05 582.01,184.05 583.39,190.32 		"/>
		<polyline class="st2" points="578.01,201.68 577.37,201.68 575.99,207.95 		"/>
		<polyline class="st2" points="579.02,193.55 578.38,193.55 577,199.82 		"/>
		<polyline class="st2" points="581.03,184.05 580.4,184.05 579.02,190.32 		"/>
	</g>
	<circle class="st3" cx="496.84" cy="205.08" r="106.23"/>
	<g id="Illustration_12_9_">
		<g>
			<path class="st4" d="M780,160.45c6.59-1.64,9.61,2.28,10.68,8.14c1.41-10.02,16.24-10.48,16.7,0.27
				c1.97-4.55,7.98-4.45,11.17-1.16c1.09,1.13,3.59,4.54,2.52,6.36c-0.88,1.49-4.48,0.86-6.36,0.86l-40.51-0.7
				C774.21,168.7,773.36,162.1,780,160.45z"/>
		</g>
	</g>
	<g id="Illustration_12_7_">
		<g>
			<path class="st4" d="M117.06,191.97c-4.61-1.15-6.72,1.6-7.47,5.7c-0.99-7.01-11.37-7.33-11.69,0.19
				c-1.38-3.18-5.58-3.12-7.82-0.81c-0.76,0.79-2.51,3.18-1.76,4.45c0.61,1.04,3.14,0.6,4.45,0.6l28.34-0.49
				C121.12,197.75,121.71,193.13,117.06,191.97z"/>
		</g>
	</g>
	<g>
		<circle class="st5" cx="937.6" cy="150.27" r="2.3"/>
	</g>
	<g>
		<circle class="st5" cx="797.75" cy="102.4" r="2.3"/>
	</g>
	<g>
		<circle class="st5" cx="935.3" cy="43.34" r="2.3"/>
	</g>
	<g>
		<circle class="st5" cx="877.24" cy="195.21" r="2.3"/>
	</g>
	<g>
		<circle class="st5" cx="985.72" cy="231.63" r="2.3"/>
	</g>
	<g>
		<circle class="st5" cx="59.72" cy="150.27" r="2.3"/>
	</g>
	<g>
		<circle class="st5" cx="199.57" cy="102.4" r="2.3"/>
	</g>
	<g>
		<circle class="st5" cx="62.02" cy="43.34" r="2.3"/>
	</g>
	<g>
		<circle class="st5" cx="162.05" cy="176.77" r="2.3"/>
	</g>
	<g>
		<circle class="st5" cx="11.6" cy="231.63" r="2.3"/>
	</g>
	<g>
		<g>
			<polygon class="st0" points="283.17,233.78 283.17,267.48 238.17,267.48 238.96,223.28 266.73,218.44 			"/>
			<g>
				<polygon class="st5" points="210.03,237.11 261.91,234.68 271.99,212.36 219.3,213.86 				"/>
				<polygon class="st5" points="271.99,212.36 283.17,233.78 266.73,218.44 				"/>
				<polygon class="st1" points="261.91,234.68 261.16,273.42 210.53,273.47 210.03,237.11 				"/>
			</g>
		</g>
		<polygon class="st0" points="283.17,267.48 261.16,273.42 261.16,254.08 		"/>
		<polygon class="st2" points="224.58,254.08 241.01,254.08 241.01,273.47 224.81,273.47 		"/>
		<polygon class="st6" points="218.94,215.4 212.12,234.68 224.96,234.68 228.05,215.4 		"/>
		<polygon class="st6" points="228.94,215.4 225.79,234.68 236.71,233.78 239.65,215.4 		"/>
		<polygon class="st6" points="240.71,215.4 237.55,233.99 248.47,233.78 251.41,215.4 		"/>
		<polygon class="st6" points="253.29,215.4 250.14,233.99 261.06,233.78 267.46,215.4 		"/>
		<rect x="247.59" y="241.2" class="st2" width="8.09" height="28.55"/>
	</g>
	<g>
		<path class="st0" d="M723.24,182.34c-1.61,0-3.15,0.27-4.61,0.77c-2.92-3.92-8.1-6.53-14-6.53c-9.13,0-16.53,6.24-16.53,13.94
			c0,1.66,0.35,3.25,0.98,4.72c-0.63,1.81-0.98,3.78-0.98,5.83c0,9.13,6.81,16.53,15.2,16.53c4.39,0,8.35-2.03,11.12-5.27
			c2.48,1.92,5.52,3.06,8.8,3.06c8.4,0,15.2-7.4,15.2-16.53C738.45,189.74,731.64,182.34,723.24,182.34z"/>
		<polygon class="st2" points="709.7,213.99 706.71,264.85 719.15,264.85 715.48,207.18 		"/>
		<polygon class="st2" points="712.93,221.54 727.91,208.96 730.16,212.1 712.93,225.21 		"/>
		<polygon class="st2" points="711.32,237.8 699.02,227.36 696.78,230.51 711.32,241.47 		"/>
		<path class="st1" d="M741.42,200.1c-0.84,0-1.65,0.14-2.41,0.4c-1.53-2.05-4.23-3.41-7.31-3.41c-4.77,0-8.64,3.26-8.64,7.28
			c0,0.87,0.18,1.7,0.51,2.47c-0.33,0.95-0.51,1.97-0.51,3.05c0,4.77,3.56,8.64,7.94,8.64c2.3,0,4.36-1.06,5.81-2.75
			c1.3,1,2.88,1.6,4.6,1.6c4.39,0,7.94-3.87,7.94-8.64C749.36,203.97,745.81,200.1,741.42,200.1z"/>
		<path class="st0" d="M699.66,233.11c0.22-0.58,0.34-1.19,0.36-1.78c1.83-0.52,3.5-2.05,4.32-4.19c1.26-3.32,0.02-6.88-2.79-7.95
			c-0.6-0.23-1.23-0.32-1.86-0.3c-0.57-0.48-1.24-0.88-1.99-1.16c-3.32-1.26-6.96,0.19-8.12,3.25c-0.61,1.6-0.42,3.32,0.38,4.78
			c-1.04,0.64-1.88,1.59-2.33,2.78c-1.16,3.06,0.59,6.56,3.91,7.82S698.5,236.17,699.66,233.11z"/>
		<g>
			<g>
				<g>
					<g>
						<g>
							<g>
								<path class="st4" d="M714.74,201c-0.72,0-1.48-0.09-2.3-0.27c-0.18-0.04-0.31-0.21-0.3-0.39c0-0.06,0.46-6.02,8.95-7.52
									c0.11-0.02,0.22,0.01,0.31,0.08c0.09,0.07,0.13,0.18,0.13,0.29c0,0.18-0.07,4.33-2.83,6.52
									C717.63,200.57,716.3,201,714.74,201z M712.94,200.06c2.2,0.42,3.98,0.11,5.3-0.94c1.97-1.56,2.42-4.37,2.52-5.48
									C714.32,194.97,713.15,198.9,712.94,200.06z"/>
							</g>
						</g>
						<g>
							<g>
								<path class="st4" d="M710.32,201c-1.56,0-2.86-0.43-3.91-1.29c-2.67-2.2-2.59-6.36-2.59-6.53c0-0.11,0.05-0.21,0.14-0.28
									c0.09-0.07,0.2-0.1,0.3-0.08c4.42,0.78,6.53,2.77,7.52,4.3c1.09,1.68,1.11,3.18,1.11,3.24c0,0.18-0.12,0.33-0.3,0.37
									C711.79,200.91,711.03,201,710.32,201z M704.59,193.65c0.06,1.09,0.4,3.92,2.3,5.48c1.27,1.04,3.03,1.36,5.23,0.93
									C711.99,198.92,711.04,194.96,704.59,193.65z"/>
							</g>
						</g>
						<g>
							<path class="st4" d="M716.15,178.73c-0.13,0.16-0.1,0.4,0.06,0.53c0.07,0.05,0.15,0.08,0.23,0.08c0.11,0,0.22-0.05,0.3-0.14
								l0.38-0.48c-0.09-0.24-0.2-0.51-0.35-0.77L716.15,178.73z"/>
							<path class="st4" d="M719.5,175.09c-0.16-0.13-0.4-0.1-0.53,0.06l-1.11,1.41c0.16,0.23,0.3,0.46,0.42,0.68l1.28-1.62
								C719.69,175.46,719.66,175.22,719.5,175.09z"/>
							<path class="st4" d="M717.01,177.63c0.15,0.25,0.28,0.5,0.37,0.74l0.63-0.8c-0.12-0.23-0.25-0.47-0.41-0.7L717.01,177.63z"/>
						</g>
						<g>
							<path class="st4" d="M712.64,175.61c-0.01,0-0.03,0-0.04-0.01l-0.03,0c-0.01,0-0.01,0-0.02,0c0,0-0.01,0-0.01,0l-0.21-0.01
								l-0.06,0.02c-0.02,0.01-0.04,0.01-0.06,0.01c-0.02,0-0.03,0-0.05,0.01v2.46c0,0.21,0.17,0.38,0.38,0.38
								c0.21,0,0.38-0.17,0.38-0.38v-2.46c-0.01,0-0.01,0-0.02,0L712.64,175.61z"/>
							<path class="st4" d="M712.48,174.31c-0.01,0-0.02,0-0.03,0c-0.01,0-0.02,0-0.03,0c-0.09,0-0.18,0.01-0.27,0.02v0.92
								c0.01,0,0.01,0,0.02,0l0.12-0.03l0.26,0.01l0.08,0c0.01,0,0.03,0.01,0.04,0.01l0.23,0.02v-0.92c0,0-0.01,0-0.01,0
								C712.75,174.33,712.62,174.31,712.48,174.31z"/>
							<path class="st4" d="M712.22,173.95c0.06-0.01,0.13-0.01,0.19-0.01l0.03,0l0.03,0c0.08,0,0.16,0.01,0.24,0.01
								c0.06,0,0.12,0.01,0.18,0.01c0,0,0,0,0.01,0v-1.28c0-0.21-0.17-0.38-0.38-0.38c-0.21,0-0.38,0.17-0.38,0.38v1.27
								C712.17,173.95,712.2,173.95,712.22,173.95z"/>
						</g>
						<g>
							<path class="st4" d="M708.94,179.19c0.07,0.09,0.18,0.14,0.3,0.14c0.08,0,0.16-0.03,0.23-0.08c0.16-0.13,0.19-0.37,0.06-0.53
								l-0.96-1.22c-0.17,0.23-0.31,0.46-0.42,0.69L708.94,179.19z"/>
							<path class="st4" d="M707.9,177.87c0.12-0.22,0.26-0.45,0.43-0.67l-0.59-0.74c-0.17,0.21-0.32,0.43-0.46,0.64L707.9,177.87z"
								/>
							<path class="st4" d="M707.04,176.78c0.14-0.21,0.29-0.42,0.46-0.63l-0.79-1c-0.13-0.16-0.37-0.19-0.53-0.06
								c-0.16,0.13-0.19,0.37-0.06,0.53L707.04,176.78z"/>
						</g>
						<g>
							<path class="st4" d="M712.9,184.66l2.53-3.71c0.12-0.17,0.07-0.41-0.1-0.52c-0.17-0.12-0.41-0.07-0.52,0.1l-2.59,3.8
								c-0.04,0.06-0.07,0.14-0.07,0.21v7.73h0.76V184.66z"/>
							<rect x="712.15" y="192.65" class="st4" width="0.76" height="0.93"/>
							<path class="st4" d="M712.9,202.24v-8.28h-0.76v8.49c0,0.13,0.07,0.25,0.18,0.32"/>
						</g>
					</g>
					<g>
						<path class="st4" d="M712.52,184.93c-0.13,0-0.25-0.07-0.32-0.18l-2.26-3.8c-0.11-0.18-0.05-0.41,0.13-0.52
							c0.18-0.11,0.41-0.05,0.52,0.13l2.26,3.8c0.11,0.18,0.05,0.41-0.13,0.52C712.66,184.91,712.59,184.93,712.52,184.93z"/>
					</g>
				</g>
				<path class="st2" d="M710.85,193.58h3.35c0.11,0,0.2-0.09,0.2-0.2v-2.68c1.01-0.68,4.87-3.77,4.31-10.76
					c-0.01-0.2-0.36-4.87-5.31-5.57c-0.05-0.01-0.21-0.04-0.21-0.04l-0.27,0c-0.01,0-0.02,0-0.02,0c-0.14,0-0.27-0.02-0.41-0.02
					c-0.01,0-0.02,0-0.03,0c-0.01,0-0.02,0-0.03,0c-0.11,0-0.21,0.02-0.33,0.02c-0.01,0-0.07,0-0.08,0l-0.3,0.03
					c-5.09,0.68-5.37,5.53-5.37,5.57c-0.56,6.99,3.3,10.08,4.31,10.76v2.68C710.65,193.49,710.74,193.58,710.85,193.58z M707.26,180
					c0.01-0.18,0.26-4.31,4.9-4.75l0.12-0.03l0.26,0.01l0.08,0c0.01,0,0.03,0.01,0.04,0.01l0.25,0.02c4.6,0.43,4.86,4.57,4.87,4.76
					c0.59,7.32-4.03,10-4.07,10.02l-0.14,0.08c-0.06,0.04-0.1,0.1-0.1,0.17v2.36h-1.89v-2.36c0-0.07-0.04-0.14-0.1-0.17l-0.14-0.08
					C711.29,190.02,706.67,187.37,707.26,180z"/>
			</g>
		</g>
		<path class="st1" d="M739.25,231.75c-0.62,0-1.22,0.11-1.78,0.3c-1.13-1.52-3.13-2.53-5.42-2.53c-3.53,0-6.4,2.42-6.4,5.39
			c0,0.64,0.13,1.26,0.38,1.83c-0.24,0.7-0.38,1.46-0.38,2.26c0,3.53,2.63,6.4,5.88,6.4c1.7,0,3.23-0.78,4.3-2.04
			c0.96,0.74,2.14,1.18,3.41,1.18c3.25,0,5.88-2.86,5.88-6.4S742.5,231.75,739.25,231.75z"/>
		<polygon class="st2" points="733.73,243.56 732.48,264.85 737.68,264.85 736.15,240.71 		"/>
		<polygon class="st2" points="735.08,246.72 741.35,241.46 742.29,242.77 735.08,248.26 		"/>
		<polygon class="st2" points="734.4,253.53 729.26,249.16 728.32,250.48 734.4,255.06 		"/>
		<path class="st0" d="M746.29,237.73c-0.32,0-0.64,0.06-0.93,0.16c-0.59-0.79-1.64-1.32-2.83-1.32c-1.85,0-3.34,1.26-3.34,2.82
			c0,0.34,0.07,0.66,0.2,0.96c-0.13,0.37-0.2,0.76-0.2,1.18c0,1.85,1.38,3.34,3.07,3.34c0.89,0,1.69-0.41,2.25-1.07
			c0.5,0.39,1.12,0.62,1.78,0.62c1.7,0,3.07-1.5,3.07-3.34C749.36,239.22,747.99,237.73,746.29,237.73z"/>
		<path class="st0" d="M729.18,251.58c0.09-0.23,0.13-0.47,0.14-0.71c0.72-0.21,1.38-0.81,1.71-1.66c0.5-1.31,0.01-2.72-1.1-3.14
			c-0.24-0.09-0.49-0.13-0.73-0.12c-0.23-0.19-0.49-0.35-0.79-0.46c-1.31-0.5-2.75,0.08-3.21,1.28c-0.24,0.63-0.16,1.31,0.15,1.89
			c-0.41,0.25-0.74,0.63-0.92,1.1c-0.46,1.21,0.23,2.59,1.55,3.09C727.28,253.36,728.72,252.79,729.18,251.58z"/>
	</g>
	<g>
		<path class="st2" d="M324.32,253.19c1.21,0.18,1.15-1.29,1.11-2.24c-0.04-0.92-0.46-1.25-1.1-0.91
			C322.69,249.89,322.21,252.87,324.32,253.19z"/>
		<path class="st2" d="M321.71,252.23c0,0-3.56-0.18-6.15,2.38c-3.31,3.27-5.16,3.86-7.55,3.77l0.43,0.9c0,0,1.52,0.21,3.43-0.55
			c1.91-0.76,4.68-3.96,6.33-4.66c2.07-0.87,3.74-1.15,3.74-1.15L321.71,252.23z"/>
		<path class="st2" d="M331.94,259.61c-0.89-1.4-1.29-1.65-2.69-2.41c-1.08-0.58-2.51-0.87-4.26-0.84c-0.4,0.01-0.79,0.05-1.18,0.13
			c-0.23-0.75-0.48-1.56-0.74-2.41l-0.76-2.99l-0.16,0.01c-0.13-0.43-0.27-0.86-0.41-1.31c0.38-0.65,1.23-2.28,0.7-3.23
			c-0.17-0.3-0.53-0.65-1.32-0.64c-1.4,0.02-2.49,0.41-3.14,0.64c-0.09,0.03-0.2,0.07-0.28,0.1c-0.05-0.02-0.11-0.03-0.17-0.02
			c-0.29,0-0.51,0.24-0.51,0.53c0,0.19,0.09,0.36,0.24,0.46c0.28,0.19,0.56,0.1,1.06-0.08c0.59-0.21,1.57-0.56,2.81-0.58
			c0.13,0,0.35,0.01,0.4,0.11c0.2,0.35-0.26,1.53-0.79,2.37c-0.08,0.13-0.1,0.29-0.06,0.43c0.04,0.14,0.09,0.29,0.13,0.43l0,0
			l0.97,2.95l-0.06,0c0.12,0.38,0.23,0.75,0.35,1.13l0.19,0.73l-10.86,7.73c-0.17-0.13-0.34-0.2-0.51-0.17
			c-0.19-0.02-0.36-0.02-0.53,0.01l-4.46-9.62l0,0l-0.79-1.71l-0.76-1.63c0.11-0.04,0.21-0.07,0.3-0.09
			c0.7-0.19,2.73-0.42,2.75-1.44c-0.13-0.03-0.29-0.06-0.43-0.14c-0.96-0.07-1.91,0-2.87-0.13c-0.82-0.11-1.47-0.53-2.24,0.03
			c-0.64,0.46-0.96,1.57-0.22,2.12c0.42,0.32,1.08,0.19,1.71-0.01l1.18,2.55l-2.06,4.6c-0.92-0.3-2.03-0.45-3.3-0.43
			c-3.11,0.05-5.69,2.26-6.57,5.62c-0.91,3.45,0.32,6.75,3.14,8.41c1.09,0.64,2.57,0.97,4.11,0.94c0.81-0.01,1.63-0.12,2.43-0.33
			c1.85-0.49,3.28-1.47,4.02-2.75c0.63-1.1,0.98-2.39,1.04-3.71l1.53-0.1c0.05,0.25,0.17,0.49,0.35,0.71
			c0.09,0.1,0.17,0.19,0.27,0.27c-0.05,0.12-0.1,0.24-0.15,0.36c-0.22,0.5-0.44,1.02-0.64,1.54l-0.25,0.65l0.69,0.05
			c0.15,0.01,0.31,0.01,0.46,0.01c0.32-0.01,0.64-0.03,0.95-0.06c0.3-0.03,0.59-0.06,0.87-0.06l-0.02-1.04
			c-0.32,0.01-0.64,0.04-0.95,0.06c-0.17,0.02-0.34,0.03-0.5,0.04c0.11-0.27,0.23-0.53,0.34-0.79c0.05-0.11,0.1-0.23,0.15-0.34
			c1,0.11,1.94-0.74,1.73-2.05c-0.03-0.16-0.09-0.35-0.17-0.54l10.61-7.55c0.07,0.21,0.13,0.43,0.2,0.64
			c-2.1,0.79-3.73,2.67-4.4,5.21c-0.91,3.45,0.32,6.75,3.14,8.41c1.09,0.64,2.57,0.97,4.11,0.94c0.81-0.01,1.63-0.12,2.43-0.33
			c1.85-0.49,3.28-1.47,4.02-2.75C333.58,265.7,333.51,262.06,331.94,259.61z M305.43,268.16c-0.6,1.04-1.8,1.85-3.39,2.27
			c-2.02,0.53-4.33,0.33-5.75-0.5c-2.92-1.72-3.26-4.98-2.66-7.25c0.93-3.53,3.59-4.82,5.59-4.85c1.11-0.02,2.06,0.1,2.85,0.34
			l-2.32,5.19c-1.09-0.04-1.74,1.27-1.06,2.09c0.64,0.77,1.58,0.6,1.96-0.06l5.66-0.35C306.25,266.15,305.95,267.25,305.43,268.16z
			 M300.77,264.34c-0.03-0.12-0.08-0.25-0.15-0.37l2.41-5.4c1.21,0.65,1.48,0.81,2.25,2.02c0.62,0.97,0.96,2.17,1.03,3.4
			L300.77,264.34z M308.99,263.83l-1.63,0.1c-0.09-1.4-0.49-2.77-1.2-3.89c-0.89-1.4-1.29-1.65-2.69-2.41c0,0-0.01,0-0.01-0.01
			l1.68-3.76l4.31,9.28C309.24,263.34,309.09,263.58,308.99,263.83z M331.21,267.73c-0.6,1.04-1.8,1.85-3.39,2.27
			c-2.02,0.53-4.33,0.33-5.75-0.5c-2.92-1.72-3.26-4.98-2.66-7.25c0.66-2.49,2.17-3.86,3.71-4.47c0.7,2.28,1.31,4.32,1.68,5.56
			c-0.4,0.45-0.5,1.16-0.08,1.67c0.87,1.05,2.32,0.37,2.11-0.97c-0.07-0.45-0.51-1.2-0.92-1.11c-0.05-0.01-0.11-0.01-0.16-0.01
			c-0.34-1.17-0.88-2.98-1.63-5.43c0.3-0.06,0.6-0.09,0.89-0.09c1.57-0.03,2.83,0.21,3.75,0.71c1.26,0.68,1.52,0.82,2.31,2.05
			C332.42,262.28,332.48,265.53,331.21,267.73z"/>
	</g>
	<g>
		<path class="st7" d="M763.55,265.7c2.48,1.92,5.28,4.08,8.45,3.09c0.17-0.05,0.34-0.11,0.51-0.18c0.08-0.03,0.15-0.09,0.2-0.16
			c0.1-0.13,0.12-0.31,0.05-0.46c-0.05-0.11-0.14-0.2-0.25-0.25c-0.12-0.05-0.24-0.05-0.36,0c-2.87,1.19-5.5-0.83-8.03-2.78
			c-2.44-1.89-4.75-3.66-7.12-2.38c-0.23,0.12-0.31,0.41-0.19,0.63c0.06,0.11,0.16,0.19,0.28,0.23c0.12,0.04,0.25,0.02,0.36-0.04
			C759.29,262.41,761.36,264.01,763.55,265.7z M772.53,268.32L772.53,268.32L772.53,268.32L772.53,268.32z"/>
		<path class="st7" d="M767.25,262.52l-0.55-0.4c-0.1-0.07-0.17-0.18-0.19-0.31c-0.02-0.12,0.01-0.25,0.09-0.35
			c0.15-0.21,0.44-0.25,0.65-0.1l0.55,0.41c2.13,1.57,3.97,2.92,6.64,2.7c0.98-0.08,1.98-0.45,3.05-0.84
			c1.94-0.71,3.95-1.45,5.98-0.45c0.11,0.06,0.2,0.15,0.24,0.27c0.04,0.12,0.03,0.25-0.02,0.36l-0.04,0.07
			c-0.06,0.08-0.15,0.14-0.24,0.17c-0.11,0.03-0.23,0.03-0.35-0.03c-1.67-0.82-3.41-0.19-5.25,0.49c-1.07,0.4-2.19,0.8-3.29,0.89
			C771.5,265.64,769.44,264.12,767.25,262.52z"/>
		<path class="st7" d="M773.74,258.53c-0.03-0.12-0.11-0.22-0.22-0.28s-0.24-0.08-0.36-0.04c-1.53,0.44-3.24-0.05-4.89-0.53
			c-2.64-0.76-5.35-1.55-7.61,1.17c-0.16,0.2-0.14,0.49,0.06,0.66c0.2,0.17,0.49,0.14,0.66-0.06c1.86-2.24,4.07-1.61,6.62-0.87
			c1.78,0.51,3.62,1.05,5.42,0.53c0.01,0,0.01,0,0.01,0c0.06-0.02,0.12-0.05,0.17-0.09l0,0
			C773.74,258.89,773.79,258.7,773.74,258.53z M773.45,258.84L773.45,258.84L773.45,258.84L773.45,258.84z"/>
		<path class="st7" d="M753.07,265.78c0.22-0.15,0.47-0.13,0.64,0.05c1.19,1.29,3.05,0.79,4.54,0.39c0.25-0.07,0.51,0.08,0.57,0.33
			c0.05,0.17-0.01,0.35-0.14,0.47c-0.05,0.04-0.11,0.08-0.17,0.1c-0.01,0-0.01,0-0.02,0.01c-1.65,0.44-3.9,1.04-5.48-0.67
			C752.84,266.27,752.86,265.97,753.07,265.78z"/>
	</g>
	<g>
		<g>
			<path class="st2" d="M437.95,249.85h-24.32c-0.43,0-0.79-0.31-0.79-0.69s0.35-0.69,0.79-0.69h24.32c0.43,0,0.79,0.31,0.79,0.69
				S438.38,249.85,437.95,249.85z"/>
		</g>
		<g>
			<rect x="415.8" y="250.54" class="st2" width="20.53" height="3.79"/>
			<rect x="415.8" y="254.86" class="st2" width="20.53" height="4.39"/>
			<rect x="415.8" y="264.71" class="st2" width="20.53" height="5.22"/>
			<rect x="415.8" y="259.78" class="st2" width="20.53" height="4.39"/>
		</g>
		<rect x="417.37" y="268.74" class="st2" width="2.69" height="3.46"/>
		<rect x="431.76" y="268.74" class="st2" width="2.69" height="3.46"/>
	</g>
	<g>
		<path class="st0" d="M512.39,264.17c0,0-1.35-24.94,11.25-24.94s39.98,0,39.98,0s14.39-1.06,19.21,6.43
			c4.82,7.49,8.03,11.94,8.03,11.94v10.02h-78.48V264.17z"/>
		<circle class="st1" cx="524.74" cy="265.55" r="6.82"/>
		<circle class="st1" cx="577.48" cy="265.55" r="6.82"/>
		<path class="st8" d="M524.31,242.17c0,0-5.01-0.65-6.4,5.03v4.61h12.7v-9.66L524.31,242.17z"/>
		<rect x="532.16" y="242.15" class="st8" width="10.71" height="9.66"/>
		<rect x="544.75" y="242.15" class="st8" width="10.71" height="9.66"/>
		<rect x="557.05" y="242.15" class="st8" width="10.71" height="9.66"/>
		<path class="st8" d="M569.45,242.15v9.66h14.86l-4.95-6.69C579.35,245.12,575.34,242.15,569.45,242.15z"/>
		<path class="st2" d="M590.87,257.59c0,0-3.48-1.33-3.48,1.13c0,2.46,0,5.14,0,5.14h3.48V257.59z"/>
	</g>
	<g>
		<g>
			<polygon class="st0" points="643.28,251.19 672.76,251.19 670.02,263.59 648.73,263.59 			"/>
		</g>
		<g>
			<path class="st0" d="M668.55,268.79h-19.82c-0.3,0-0.54-0.24-0.54-0.54s0.24-0.54,0.54-0.54h19.4l4.11-16.65
				c0-0.02,0.01-0.04,0.02-0.05l1.26-3.53c0.33-0.99,1.68-2.83,4.33-2.64c0.3,0.02,0.52,0.28,0.5,0.57c-0.02,0.3-0.28,0.52-0.57,0.5
				c-2.5-0.17-3.23,1.9-3.24,1.92l-1.26,3.52l-4.2,17.03C669.01,268.62,668.8,268.79,668.55,268.79z"/>
		</g>
		<circle class="st2" cx="651.85" cy="270.16" r="1.68"/>
		<circle class="st2" cx="665.82" cy="270.16" r="1.68"/>
	</g>
	<g>
		<g>
			<path class="st0" d="M344.96,192.78c-0.08,0-0.16-0.02-0.23-0.06c-20.71-11.82-37.45-11.2-47.86-8.61
				c-11.27,2.81-17.74,8.49-17.81,8.55c-0.2,0.17-0.49,0.16-0.67-0.04c-0.17-0.2-0.16-0.49,0.04-0.67
				c0.26-0.23,26.53-23.02,66.76-0.06c0.23,0.13,0.31,0.42,0.18,0.65C345.28,192.7,345.12,192.78,344.96,192.78z"/>
		</g>
		<g>
			<g>
				<g>
					<g>
						<g>
							<g>
								<path class="st4" d="M315.5,200.36c-0.92,0-1.91-0.12-2.95-0.35c-0.23-0.05-0.39-0.27-0.38-0.5c0-0.08,0.59-7.73,11.51-9.67
									c0.14-0.02,0.29,0.01,0.4,0.11c0.11,0.09,0.17,0.23,0.17,0.37c0,0.23-0.09,5.57-3.64,8.38
									C319.22,199.81,317.51,200.36,315.5,200.36z M313.19,199.16c2.82,0.54,5.11,0.14,6.81-1.2c2.53-2.01,3.11-5.62,3.24-7.04
									C314.96,192.6,313.46,197.66,313.19,199.16z"/>
							</g>
						</g>
						<g>
							<g>
								<path class="st4" d="M309.81,200.36c-2,0-3.68-0.55-5.02-1.66c-3.43-2.82-3.33-8.17-3.33-8.4c0-0.14,0.07-0.27,0.18-0.36
									c0.11-0.09,0.25-0.13,0.39-0.1c5.68,1.01,8.39,3.56,9.67,5.53c1.4,2.16,1.43,4.08,1.43,4.16c0,0.23-0.16,0.43-0.38,0.48
									C311.71,200.25,310.73,200.36,309.81,200.36z M302.45,190.91c0.08,1.41,0.52,5.04,2.96,7.05c1.63,1.34,3.89,1.74,6.72,1.19
									C311.96,197.68,310.75,192.6,302.45,190.91z"/>
							</g>
						</g>
						<g>
							<path class="st4" d="M317.3,171.73c-0.17,0.21-0.13,0.52,0.08,0.68c0.09,0.07,0.2,0.1,0.3,0.1c0.14,0,0.29-0.06,0.38-0.18
								l0.48-0.61c-0.11-0.31-0.26-0.65-0.46-0.99L317.3,171.73z"/>
							<path class="st4" d="M321.61,167.06c-0.21-0.17-0.52-0.13-0.68,0.08l-1.43,1.81c0.21,0.29,0.39,0.59,0.54,0.88l1.65-2.09
								C321.86,167.53,321.82,167.23,321.61,167.06z"/>
							<path class="st4" d="M318.42,170.32c0.2,0.32,0.36,0.65,0.48,0.96l0.82-1.03c-0.15-0.3-0.32-0.6-0.53-0.9L318.42,170.32z"/>
						</g>
						<g>
							<path class="st4" d="M312.79,167.73c-0.02,0-0.04,0-0.05-0.01l-0.04,0c-0.01,0-0.01,0-0.02,0c-0.01,0-0.01,0-0.02,0
								l-0.27-0.01l-0.08,0.02c-0.03,0.01-0.05,0.01-0.08,0.01c-0.02,0-0.04,0.01-0.07,0.01v3.16c0,0.27,0.22,0.49,0.49,0.49
								c0.27,0,0.49-0.22,0.49-0.49v-3.16c-0.01,0-0.02,0-0.02,0L312.79,167.73z"/>
							<path class="st4" d="M312.59,166.06c-0.01,0-0.03,0-0.04,0c-0.01,0-0.03,0-0.04,0c-0.11,0-0.23,0.01-0.35,0.02v1.19
								c0.01,0,0.01,0,0.02,0l0.15-0.04l0.34,0.01l0.11,0c0.02,0.01,0.04,0.01,0.06,0.01l0.29,0.03v-1.19c0,0-0.01,0-0.01,0
								C312.95,166.09,312.77,166.06,312.59,166.06z"/>
							<path class="st4" d="M312.26,165.59c0.08-0.01,0.17-0.01,0.25-0.01l0.04,0l0.04,0c0.1,0,0.2,0.01,0.3,0.01
								c0.08,0.01,0.15,0.01,0.23,0.01c0,0,0.01,0,0.01,0v-1.64c0-0.27-0.22-0.49-0.49-0.49c-0.27,0-0.49,0.22-0.49,0.49v1.63
								C312.2,165.59,312.23,165.59,312.26,165.59z"/>
						</g>
						<g>
							<path class="st4" d="M308.05,172.33c0.1,0.12,0.24,0.18,0.38,0.18c0.11,0,0.21-0.03,0.3-0.1c0.21-0.17,0.25-0.47,0.08-0.68
								l-1.24-1.56c-0.22,0.29-0.39,0.59-0.54,0.88L308.05,172.33z"/>
							<path class="st4" d="M306.71,170.63c0.15-0.29,0.34-0.58,0.56-0.86l-0.75-0.95c-0.22,0.27-0.42,0.55-0.59,0.82L306.71,170.63
								z"/>
							<path class="st4" d="M305.6,169.23c0.18-0.27,0.37-0.55,0.6-0.81l-1.01-1.28c-0.17-0.21-0.47-0.25-0.68-0.08
								c-0.21,0.17-0.25,0.47-0.08,0.68L305.6,169.23z"/>
						</g>
						<g>
							<path class="st4" d="M313.14,179.37l3.25-4.76c0.15-0.22,0.09-0.52-0.13-0.67c-0.22-0.15-0.52-0.09-0.67,0.13l-3.33,4.89
								c-0.05,0.08-0.08,0.18-0.08,0.27v9.93h0.97V179.37z"/>
							<rect x="312.16" y="189.63" class="st4" width="0.97" height="1.2"/>
							<path class="st4" d="M313.14,201.95v-10.64h-0.97v10.91c0,0.17,0.09,0.33,0.23,0.41"/>
						</g>
					</g>
					<g>
						<path class="st4" d="M312.65,179.7c-0.17,0-0.33-0.08-0.42-0.24l-2.91-4.89c-0.14-0.23-0.06-0.53,0.17-0.67
							c0.23-0.14,0.53-0.06,0.67,0.17l2.91,4.89c0.14,0.23,0.06,0.53-0.17,0.67C312.82,179.68,312.73,179.7,312.65,179.7z"/>
					</g>
				</g>
				<path class="st2" d="M310.49,190.83h4.31c0.14,0,0.26-0.11,0.26-0.26v-3.44c1.3-0.88,6.27-4.85,5.54-13.83
					c-0.02-0.26-0.47-6.26-6.83-7.16c-0.06-0.01-0.27-0.06-0.27-0.06l-0.35,0c-0.01,0-0.02,0-0.03,0c-0.18,0-0.35-0.03-0.53-0.03
					c-0.01,0-0.03,0-0.04,0c-0.01,0-0.03,0-0.04,0c-0.14,0-0.28,0.03-0.42,0.03c-0.01,0-0.09,0-0.1,0l-0.39,0.04
					c-6.54,0.88-6.9,7.11-6.9,7.16c-0.72,8.98,4.24,12.96,5.54,13.83v3.44C310.24,190.71,310.35,190.83,310.49,190.83z
					 M305.89,173.38c0.01-0.23,0.34-5.54,6.3-6.11l0.15-0.04l0.34,0.01l0.11,0c0.02,0.01,0.04,0.01,0.06,0.01l0.32,0.03
					c5.92,0.56,6.24,5.87,6.25,6.12c0.76,9.41-5.18,12.85-5.23,12.88l-0.18,0.1c-0.08,0.05-0.13,0.13-0.13,0.22v3.03h-2.43v-3.03
					c0-0.09-0.05-0.18-0.13-0.22l-0.18-0.1C311.06,186.24,305.13,182.85,305.89,173.38z"/>
			</g>
		</g>
		<g>
			<path class="st0" d="M343.24,197.43c-0.19,0-0.37-0.12-0.44-0.31c-0.09-0.24,0.03-0.52,0.27-0.61l6.34-2.41l-1.97-6.1
				c-0.08-0.25,0.06-0.52,0.3-0.6c0.25-0.08,0.52,0.06,0.6,0.3l2.11,6.53c0.08,0.24-0.05,0.5-0.28,0.59l-6.76,2.57
				C343.35,197.42,343.29,197.43,343.24,197.43z"/>
		</g>
		<g>
			<path class="st0" d="M280.37,197.43c-0.06,0-0.11-0.01-0.17-0.03l-6.76-2.57c-0.24-0.09-0.36-0.35-0.28-0.59l2.11-6.53
				c0.08-0.25,0.35-0.38,0.6-0.3c0.25,0.08,0.39,0.35,0.3,0.6l-1.97,6.1l6.34,2.41c0.24,0.09,0.37,0.37,0.27,0.61
				C280.74,197.31,280.56,197.43,280.37,197.43z"/>
		</g>
	</g>
	<rect x="367.03" y="217.39" class="st9" width="5.63" height="51.15"/>
	<rect x="415.9" y="177.36" class="st9" width="13.76" height="51.15"/>
</g>
</svg>
